Comment [12/28/2017 11:03:26 AM]: [1] Execution Start Time: 11:03:26 AM
----[Start QAPerformance.exe  TestCases.Performance.UI.PerceivedPerformance.OpenContactFormCold, Test count 2]----

----[Start TestCases.Performance.UI.PerceivedPerformance.OpenContactFormCold]----

Comment [12/28/2017 11:03:26 AM]: [1] Running test in QAPerformance domain.
Comment [12/28/2017 11:03:27 AM]: [5] Setting TestBase.TestMethodName as "OpenContactFormCold"
Comment [12/28/2017 11:03:27 AM]: [5] Setting form mode to Edit form.
Comment [12/28/2017 11:03:27 AM]: [5] Update TakeOutlookDump registry value: 1
Comment [12/28/2017 11:03:27 AM]: [5] Seed is being set to:-1623169317
Comment [12/28/2017 11:03:27 AM]: [5] Platform Windows, browser Chrome, Device Host Machine , Device Host User , Device Host Password , Device Id , Device Name , Device OS .
Comment [12/28/2017 11:03:27 AM]: [5] Context b29243d3-9ddf-4324-8354-2ae944bc815d Instantiated TestClientMode:WebApp
Comment [12/28/2017 11:03:27 AM]: [5] Platform Windows, browser Chrome, Device Host Machine , Device Host User , Device Host Password , Device Id , Device Name , Device OS .
Comment [12/28/2017 11:03:27 AM]: [5] Context c7f35a0c-80a8-49f4-899a-210aed5c1341 Instantiated TestClientMode:WebApp
Comment [12/28/2017 11:03:27 AM]: [5] Using Selenium Automation driver.
Comment [12/28/2017 11:03:27 AM]: [5] [Desktop.Initialize] WindowsDesktop initialized successfully.
Comment [12/28/2017 11:03:27 AM]: [5] Context 4d2a265d-fb30-4c13-a07a-15120f4d9a82 Instantiated TestClientMode:WebApp
Comment [12/28/2017 11:03:27 AM]: [5] Proxy 3d548332-e1a5-4733-acec-0e0a1404fa06 Instantiated
Comment [12/28/2017 11:03:27 AM]: [5] Configuring Online 2011 AD OrganizationService Proxy for Organization "contoso" with User "Administrator@appcoreDOM.extest.microsoft.com"
Comment [12/28/2017 11:03:27 AM]: [5] Attempting to generate web service - Attempt 1
Comment [12/28/2017 11:03:27 AM]: [5] Creating configuration for http://192.168.53.27/XRMServices/2011/Discovery.svc
Comment [12/28/2017 11:03:28 AM]: [5] Creating configuration for http://192.168.53.27/XRMServices/2011/Discovery.svc took 1.1650417 seconds
Comment [12/28/2017 11:03:29 AM]: [5] Creating configuration for http://v-tagoon/contoso/XRMServices/2011/Organization.svc
Comment [12/28/2017 11:03:29 AM]: [5] Creating configuration for http://v-tagoon/contoso/XRMServices/2011/Organization.svc took 0.0910179 seconds
Comment [12/28/2017 11:03:29 AM]: [5] Proxy 3d548332-e1a5-4733-acec-0e0a1404fa06's Internal Proxy Generated (9.0.1.53)
Comment [12/28/2017 11:03:29 AM]: [5] Proxy 84b85c93-1a64-43f8-bfe4-16eead29678f Instantiated
Comment [12/28/2017 11:03:29 AM]: [5] Configuring Online 2011 AD OrganizationService Proxy for Organization "contoso" with User "Administrator@appcoreDOM"
Comment [12/28/2017 11:03:29 AM]: [5] Attempting to generate web service - Attempt 1
Comment [12/28/2017 11:03:29 AM]: [5] Proxy 84b85c93-1a64-43f8-bfe4-16eead29678f's Internal Proxy Generated (9.0.1.53)
Warning [12/28/2017 11:03:29 AM]: [5] Proxy 3d548332-e1a5-4733-acec-0e0a1404fa06 Timeout Changed from 00:02:00 to 00:05:00
Warning [12/28/2017 11:03:29 AM]: [5] Proxy 84b85c93-1a64-43f8-bfe4-16eead29678f Timeout Changed from 00:02:00 to 00:05:00
Comment [12/28/2017 11:03:29 AM]: [5] -----------------------------------
3d548332-e1a5-4733-acec-0e0a1404fa06: RetrieveMultiple(systemuser) at http://v-tagoon/contoso/XRMServices/2011/Organization.svc
Comment [12/28/2017 11:03:30 AM]: [5] 3d548332-e1a5-4733-acec-0e0a1404fa06: RetrieveMultiple Completed (79.9712ms Elapsed) - Return Value: Count = 0 (Microsoft.Xrm.Sdk.EntityCollection)
Comment [12/28/2017 11:03:30 AM]: [5] -----------------------------------
84b85c93-1a64-43f8-bfe4-16eead29678f: Execute(Microsoft.Crm.Sdk.Messages.WhoAmIRequest) at http://v-tagoon/contoso/XRMServices/2011/Organization.svc
Comment [12/28/2017 11:03:30 AM]: [5] 84b85c93-1a64-43f8-bfe4-16eead29678f: Execute Completed (165.3693ms Elapsed) - Return Value: WhoAmI (Microsoft.Crm.Sdk.Messages.WhoAmIResponse)
Comment [12/28/2017 11:03:30 AM]: [5] -----------------------------------
3d548332-e1a5-4733-acec-0e0a1404fa06: Execute(Microsoft.Xrm.Sdk.Messages.RetrieveMultipleRequest) at http://v-tagoon/contoso/XRMServices/2011/Organization.svc
Comment [12/28/2017 11:03:30 AM]: [5] 3d548332-e1a5-4733-acec-0e0a1404fa06: Execute Completed (49.2581ms Elapsed) - Return Value: RetrieveMultiple (Microsoft.Xrm.Sdk.Messages.RetrieveMultipleResponse)
Comment [12/28/2017 11:03:30 AM]: [5] -----------------------------------
3d548332-e1a5-4733-acec-0e0a1404fa06: Retrieve(role, {73724ad8-e5eb-e711-80e6-00155d350300}) at http://v-tagoon/contoso/XRMServices/2011/Organization.svc
Comment [12/28/2017 11:03:30 AM]: [5] 3d548332-e1a5-4733-acec-0e0a1404fa06: Retrieve Completed (8.7562ms Elapsed) - Return Value: role (CrmSdk.Role)
Warning [12/28/2017 11:03:30 AM]: [5] Proxy 3d548332-e1a5-4733-acec-0e0a1404fa06 Timeout Changed from 00:05:00 to 00:02:00
Warning [12/28/2017 11:03:30 AM]: [5] Proxy 84b85c93-1a64-43f8-bfe4-16eead29678f Timeout Changed from 00:05:00 to 00:02:00
Comment [12/28/2017 11:03:30 AM]: [5] This testcase will be run in the context of this role:System Administrator
Comment [12/28/2017 11:03:30 AM]: [5] [AssemblyLocator] Ignoring XML Serializer "Microsoft.Crm.Core.XmlSerializers.dll"
Comment [12/28/2017 11:03:30 AM]: [5] -----------------------------------
3d548332-e1a5-4733-acec-0e0a1404fa06: Retrieve(systemuser, {027b4ad8-e5eb-e711-80e6-00155d350300}) at http://v-tagoon/contoso/XRMServices/2011/Organization.svc
Comment [12/28/2017 11:03:30 AM]: [5] 3d548332-e1a5-4733-acec-0e0a1404fa06: Retrieve Completed (14.1472ms Elapsed) - Return Value: systemuser (CrmSdk.SystemUser)
Comment [12/28/2017 11:03:30 AM]: [5] -----------------------------------
3d548332-e1a5-4733-acec-0e0a1404fa06: Retrieve(systemuser, {027b4ad8-e5eb-e711-80e6-00155d350300}) at http://v-tagoon/contoso/XRMServices/2011/Organization.svc
Comment [12/28/2017 11:03:30 AM]: [5] 3d548332-e1a5-4733-acec-0e0a1404fa06: Retrieve Completed (11.8536ms Elapsed) - Return Value: systemuser (CrmSdk.SystemUser)
Comment [12/28/2017 11:03:30 AM]: [5] -----------------------------------
84b85c93-1a64-43f8-bfe4-16eead29678f: Retrieve(organization, {95198255-1b68-4aca-91d7-c4dd7bee3ee7}) at http://v-tagoon/contoso/XRMServices/2011/Organization.svc
Comment [12/28/2017 11:03:30 AM]: [5] 84b85c93-1a64-43f8-bfe4-16eead29678f: Retrieve Completed (13.057ms Elapsed) - Return Value: organization (CrmSdk.Organization)
Comment [12/28/2017 11:03:30 AM]: [5] -----------------------------------
3d548332-e1a5-4733-acec-0e0a1404fa06: RetrieveMultiple(organization) at http://v-tagoon/contoso/XRMServices/2011/Organization.svc
Comment [12/28/2017 11:03:30 AM]: [5] 3d548332-e1a5-4733-acec-0e0a1404fa06: RetrieveMultiple Completed (8.9066ms Elapsed) - Return Value: Count = 1 (Microsoft.Xrm.Sdk.EntityCollection)
Comment [12/28/2017 11:03:30 AM]: [5] [EnableDefaultPublisherForOfflineIfOutlookMode] The context is not an Outlook context.
Comment [12/28/2017 11:03:30 AM]: [5] Returning Random Integer: 714 Call: 1
Comment [12/28/2017 11:03:30 AM]: [5] Returning Random Integer: 4630 Call: 2
Comment [12/28/2017 11:03:30 AM]: [5] -----------------------------------
3d548332-e1a5-4733-acec-0e0a1404fa06: Execute(Microsoft.Xrm.Sdk.Messages.RetrieveEntityRequest) at http://v-tagoon/contoso/XRMServices/2011/Organization.svc
Comment [12/28/2017 11:03:31 AM]: [5] 3d548332-e1a5-4733-acec-0e0a1404fa06: Execute Completed (669.4289ms Elapsed) - Return Value: RetrieveEntity (Microsoft.Xrm.Sdk.Messages.RetrieveEntityResponse)
Comment [12/28/2017 11:03:31 AM]: [5] -----------------------------------
84b85c93-1a64-43f8-bfe4-16eead29678f: Execute(Microsoft.Crm.Sdk.Messages.RetrieveUserSettingsSystemUserRequest) at http://v-tagoon/contoso/XRMServices/2011/Organization.svc
Comment [12/28/2017 11:03:31 AM]: [5] 84b85c93-1a64-43f8-bfe4-16eead29678f: Execute Completed (10.0392ms Elapsed) - Return Value: RetrieveUserSettingsSystemUser (Microsoft.Crm.Sdk.Messages.RetrieveUserSettingsSystemUserResponse)
Comment [12/28/2017 11:03:31 AM]: [5] -----------------------------------
84b85c93-1a64-43f8-bfe4-16eead29678f: RetrieveMultiple(userentityuisettings) at http://v-tagoon/contoso/XRMServices/2011/Organization.svc
Comment [12/28/2017 11:03:31 AM]: [5] 84b85c93-1a64-43f8-bfe4-16eead29678f: RetrieveMultiple Completed (8.4144ms Elapsed) - Return Value: Count = 5 (Microsoft.Xrm.Sdk.EntityCollection)
Comment [12/28/2017 11:03:31 AM]: [5] [RefreshFormOrder] Removing the LastViewedFormXml for the Entities with ObjectTypeCode = 1, 2, 4, 3, 112
Comment [12/28/2017 11:03:31 AM]: [5] -----------------------------------
84b85c93-1a64-43f8-bfe4-16eead29678f: Update(CrmSdk.UserEntityUISettings [LogicalName = userentityuisettings]) at http://v-tagoon/contoso/XRMServices/2011/Organization.svc
Comment [12/28/2017 11:03:31 AM]: [5] 84b85c93-1a64-43f8-bfe4-16eead29678f: Update Completed (21.7853ms Elapsed)
Comment [12/28/2017 11:03:31 AM]: [5] -----------------------------------
84b85c93-1a64-43f8-bfe4-16eead29678f: Update(CrmSdk.UserEntityUISettings [LogicalName = userentityuisettings]) at http://v-tagoon/contoso/XRMServices/2011/Organization.svc
Comment [12/28/2017 11:03:31 AM]: [5] 84b85c93-1a64-43f8-bfe4-16eead29678f: Update Completed (12.0061ms Elapsed)
Comment [12/28/2017 11:03:31 AM]: [5] -----------------------------------
84b85c93-1a64-43f8-bfe4-16eead29678f: Update(CrmSdk.UserEntityUISettings [LogicalName = userentityuisettings]) at http://v-tagoon/contoso/XRMServices/2011/Organization.svc
Comment [12/28/2017 11:03:31 AM]: [5] 84b85c93-1a64-43f8-bfe4-16eead29678f: Update Completed (14.0673ms Elapsed)
Comment [12/28/2017 11:03:31 AM]: [5] -----------------------------------
84b85c93-1a64-43f8-bfe4-16eead29678f: Update(CrmSdk.UserEntityUISettings [LogicalName = userentityuisettings]) at http://v-tagoon/contoso/XRMServices/2011/Organization.svc
Comment [12/28/2017 11:03:31 AM]: [5] 84b85c93-1a64-43f8-bfe4-16eead29678f: Update Completed (10.7508ms Elapsed)
Comment [12/28/2017 11:03:31 AM]: [5] -----------------------------------
84b85c93-1a64-43f8-bfe4-16eead29678f: Update(CrmSdk.UserEntityUISettings [LogicalName = userentityuisettings]) at http://v-tagoon/contoso/XRMServices/2011/Organization.svc
Comment [12/28/2017 11:03:31 AM]: [5] 84b85c93-1a64-43f8-bfe4-16eead29678f: Update Completed (11.8345ms Elapsed)
Comment [12/28/2017 11:03:31 AM]: [5] -----------------------------------
84b85c93-1a64-43f8-bfe4-16eead29678f: RetrieveMultiple(userentityuisettings) at http://v-tagoon/contoso/XRMServices/2011/Organization.svc
Comment [12/28/2017 11:03:31 AM]: [5] 84b85c93-1a64-43f8-bfe4-16eead29678f: RetrieveMultiple Completed (7.5237ms Elapsed) - Return Value: Count = 5 (Microsoft.Xrm.Sdk.EntityCollection)
Comment [12/28/2017 11:03:31 AM]: [5] [RefreshFormOrder] Setting the LastViewedFormXml for the Entities with ObjectTypeCode = 1, 2, 4, 3, 112
Comment [12/28/2017 11:03:31 AM]: [5] -----------------------------------
84b85c93-1a64-43f8-bfe4-16eead29678f: Update(CrmSdk.UserEntityUISettings [LogicalName = userentityuisettings]) at http://v-tagoon/contoso/XRMServices/2011/Organization.svc
Comment [12/28/2017 11:03:31 AM]: [5] 84b85c93-1a64-43f8-bfe4-16eead29678f: Update Completed (12.9032ms Elapsed)
Comment [12/28/2017 11:03:31 AM]: [5] -----------------------------------
84b85c93-1a64-43f8-bfe4-16eead29678f: Update(CrmSdk.UserEntityUISettings [LogicalName = userentityuisettings]) at http://v-tagoon/contoso/XRMServices/2011/Organization.svc
Comment [12/28/2017 11:03:31 AM]: [5] 84b85c93-1a64-43f8-bfe4-16eead29678f: Update Completed (12.242ms Elapsed)
Comment [12/28/2017 11:03:31 AM]: [5] -----------------------------------
84b85c93-1a64-43f8-bfe4-16eead29678f: Update(CrmSdk.UserEntityUISettings [LogicalName = userentityuisettings]) at http://v-tagoon/contoso/XRMServices/2011/Organization.svc
Comment [12/28/2017 11:03:31 AM]: [5] 84b85c93-1a64-43f8-bfe4-16eead29678f: Update Completed (11.8062ms Elapsed)
Comment [12/28/2017 11:03:31 AM]: [5] -----------------------------------
84b85c93-1a64-43f8-bfe4-16eead29678f: Update(CrmSdk.UserEntityUISettings [LogicalName = userentityuisettings]) at http://v-tagoon/contoso/XRMServices/2011/Organization.svc
Comment [12/28/2017 11:03:31 AM]: [5] 84b85c93-1a64-43f8-bfe4-16eead29678f: Update Completed (12.5972ms Elapsed)
Comment [12/28/2017 11:03:31 AM]: [5] -----------------------------------
84b85c93-1a64-43f8-bfe4-16eead29678f: Update(CrmSdk.UserEntityUISettings [LogicalName = userentityuisettings]) at http://v-tagoon/contoso/XRMServices/2011/Organization.svc
Comment [12/28/2017 11:03:31 AM]: [5] 84b85c93-1a64-43f8-bfe4-16eead29678f: Update Completed (11.8695ms Elapsed)
Warning [12/28/2017 11:08:31 AM]: [5] Client failed to start. Test case will fail ahead. System.Runtime.InteropServices.COMException (0x8007203A): The server is not operational.

   at System.DirectoryServices.DirectoryEntry.Bind(Boolean throwIfFail)
   at System.DirectoryServices.DirectoryEntry.Bind()
   at System.DirectoryServices.DirectoryEntry.get_AdsObject()
   at System.DirectoryServices.PropertyValueCollection.PopulateList()
   at System.DirectoryServices.PropertyValueCollection..ctor(DirectoryEntry entry, String propertyName)
   at System.DirectoryServices.PropertyCollection.get_Item(String propertyName)
   at Microsoft.Crm.QA.Automation.ADSI.getDNS(String domain)
   at Microsoft.Crm.QA.Automation.ADSI..ctor(String adminName, String adminPassword, String userDomain, String serverDomain)
   at Microsoft.Crm.QA.Libraries.OrgManagement.OrgLibraryFactory.CreateOrgLibrary(CrmAdminContext adminContext)
   at Microsoft.Crm.QA.UICommonFramework.UITest.SetMarketingAndToolsAsWorkplaceDefault()
   at Microsoft.Crm.QA.UICommonFramework.UITest.SetUp()
   at Microsoft.Crm.QA.UICommonFramework.UITestBase.SetUp()
FAILURE [12/28/2017 11:08:31 AM]: [5] Unhandled Exception: System.NullReferenceException: Object reference not set to an instance of an object.
   at TestCases.Performance.UI.PerceivedPerformanceBase.CallIsEnabledPerformanceMarker()
   at TestCases.Performance.UI.PerceivedPerformanceBase.SetUp()
   at TestCases.Performance.UI.PerceivedPerformance.SetUp()
   at Microsoft.Crm.QA.Utf.TestBase.InvokeSetUp()

Screenshot [12/28/2017 11:08:31 AM]: C:\crmdrop\crmdrop\TestCases\ScreenShots\20171228070831-0.jpg
Warning [12/28/2017 11:08:31 AM]: [5] [VSTSRMLog] - TestCaseId is not set in the testmethod.
Comment [12/28/2017 11:08:31 AM]: [5] Platform Windows, browser Chrome, Device Host Machine , Device Host User , Device Host Password , Device Id , Device Name , Device OS .
Comment [12/28/2017 11:08:31 AM]: [5] Context b92cc8c2-e94b-46f6-9156-1d97e727c55f Instantiated TestClientMode:WebApp
Comment [12/28/2017 11:08:31 AM]: [5] Proxy 2737a9bc-02b3-4630-a489-bb924ffb90d0 Instantiated
Comment [12/28/2017 11:08:31 AM]: [5] Configuring Online 2011 AD OrganizationService Proxy for Organization "contoso" with User "Administrator@appcoreDOM.extest.microsoft.com"
Comment [12/28/2017 11:08:31 AM]: [5] Attempting to generate web service - Attempt 1
Comment [12/28/2017 11:08:31 AM]: [5] Proxy 2737a9bc-02b3-4630-a489-bb924ffb90d0's Internal Proxy Generated (9.0.1.53)
Comment [12/28/2017 11:08:31 AM]: [5] -----------------------------------
2737a9bc-02b3-4630-a489-bb924ffb90d0: Execute(Microsoft.Crm.Sdk.Messages.Internal.DebugTraceBufferGetContentsRequest) at http://v-tagoon/contoso/XRMServices/2011/Organization.svc
Comment [12/28/2017 11:08:32 AM]: [5] 2737a9bc-02b3-4630-a489-bb924ffb90d0: Execute Completed (45.7389ms Elapsed) - Return Value: DebugTraceBufferGetContents (Microsoft.Crm.Sdk.Messages.Internal.DebugTraceBufferGetContentsResponse)
Comment [12/28/2017 11:08:32 AM]: [5] Wrote 0 lines of trace information to file C:\crmdrop\crmdrop\TestCases\TraceLogs\Server-TraceLog20171228070832-0.log
File [12/28/2017 11:08:32 AM]: C:\crmdrop\crmdrop\TestCases\TraceLogs\Server-TraceLog20171228070832-0.log
Comment [12/28/2017 11:08:32 AM]: [5] Proxy 2737a9bc-02b3-4630-a489-bb924ffb90d0 Disposed
Comment [12/28/2017 11:08:32 AM]: [5] Context b92cc8c2-e94b-46f6-9156-1d97e727c55f Disposed
Comment [12/28/2017 11:08:32 AM]: [5] Using Outlook Proceesses to determine client type
Comment [12/28/2017 11:08:32 AM]: [5] No Outlook Processes found.
Comment [12/28/2017 11:08:32 AM]: [5] Processing Open browsers for script errors
Comment [12/28/2017 11:08:32 AM]: [5] [AssemblyLocator] Loaded assembly "C:\crmdrop\crmdrop\TestCases\amd64\Mita.Foundation.dll".
Comment [12/28/2017 11:08:32 AM]: [5] Done dealing with script errors
Comment [12/28/2017 11:08:32 AM]: [5] Setting Wait For Idle toggle to True
Comment [12/28/2017 11:08:32 AM]: [5] Restoring form mode settings to what they were before the test.
Comment [12/28/2017 11:08:32 AM]: [5] Platform Windows, browser Chrome, Device Host Machine , Device Host User , Device Host Password , Device Id , Device Name , Device OS .
Comment [12/28/2017 11:08:32 AM]: [5] Context 5d2564dd-d58f-44a9-887a-3fa1fb73a4b2 Instantiated TestClientMode:WebApp
Comment [12/28/2017 11:08:32 AM]: [5] Begin Block: ReadOptimizedFormSdk.SetOrgLevelROSetting
Comment [12/28/2017 11:08:32 AM]: [5]  --> Setting org-level RO value to Edit (SDK value: False) through SDK
Comment [12/28/2017 11:08:32 AM]: [5] Begin Block: ReadOptimizedFormSdk.GetCurrentOrg
Comment [12/28/2017 11:08:32 AM]: [5] Context 9c00277b-ed72-443b-970c-e34361665017 Instantiated TestClientMode:WebApp
Comment [12/28/2017 11:08:32 AM]: [5] Proxy c91f1694-9316-4cc5-a494-98e4106d80c2 Instantiated
Comment [12/28/2017 11:08:32 AM]: [5] Configuring Online 2011 AD OrganizationService Proxy for Organization "contoso" with User "Administrator@appcoreDOM.extest.microsoft.com"
Comment [12/28/2017 11:08:32 AM]: [5] Attempting to generate web service - Attempt 1
Comment [12/28/2017 11:08:32 AM]: [5] Proxy c91f1694-9316-4cc5-a494-98e4106d80c2's Internal Proxy Generated (9.0.1.53)
Comment [12/28/2017 11:08:32 AM]: [5] -----------------------------------
c91f1694-9316-4cc5-a494-98e4106d80c2: RetrieveMultiple(systemuser) at http://v-tagoon/contoso/XRMServices/2011/Organization.svc
Comment [12/28/2017 11:08:32 AM]: [5] c91f1694-9316-4cc5-a494-98e4106d80c2: RetrieveMultiple Completed (13.5818ms Elapsed) - Return Value: Count = 0 (Microsoft.Xrm.Sdk.EntityCollection)
Comment [12/28/2017 11:08:32 AM]: [5] -----------------------------------
3d548332-e1a5-4733-acec-0e0a1404fa06: Execute(Microsoft.Crm.Sdk.Messages.WhoAmIRequest) at http://v-tagoon/contoso/XRMServices/2011/Organization.svc
Comment [12/28/2017 11:08:32 AM]: [5] 3d548332-e1a5-4733-acec-0e0a1404fa06: Execute Completed (4.934ms Elapsed) - Return Value: WhoAmI (Microsoft.Crm.Sdk.Messages.WhoAmIResponse)
Comment [12/28/2017 11:08:32 AM]: [5] -----------------------------------
c91f1694-9316-4cc5-a494-98e4106d80c2: Retrieve(systemuser, {027b4ad8-e5eb-e711-80e6-00155d350300}) at http://v-tagoon/contoso/XRMServices/2011/Organization.svc
Comment [12/28/2017 11:08:32 AM]: [5] c91f1694-9316-4cc5-a494-98e4106d80c2: Retrieve Completed (7.2178ms Elapsed) - Return Value: systemuser (CrmSdk.SystemUser)
Comment [12/28/2017 11:08:32 AM]: [5] -----------------------------------
3d548332-e1a5-4733-acec-0e0a1404fa06: Retrieve(organization, {95198255-1b68-4aca-91d7-c4dd7bee3ee7}) at http://v-tagoon/contoso/XRMServices/2011/Organization.svc
Comment [12/28/2017 11:08:32 AM]: [5] 3d548332-e1a5-4733-acec-0e0a1404fa06: Retrieve Completed (7.3196ms Elapsed) - Return Value: organization (CrmSdk.Organization)
Comment [12/28/2017 11:08:32 AM]: [5] -----------------------------------
3d548332-e1a5-4733-acec-0e0a1404fa06: Update(CrmSdk.Organization [LogicalName = organization]) at http://v-tagoon/contoso/XRMServices/2011/Organization.svc
Comment [12/28/2017 11:08:32 AM]: [5] 3d548332-e1a5-4733-acec-0e0a1404fa06: Update Completed (33.4004ms Elapsed)
Comment [12/28/2017 11:08:32 AM]: [5] Context 087286f8-fa8b-47c7-801d-78f967b23b14 Instantiated TestClientMode:WebApp
Comment [12/28/2017 11:08:32 AM]: [5] Proxy 799e307a-c25d-4e7f-a361-001e8d596ff7 Instantiated
Comment [12/28/2017 11:08:32 AM]: [5] [FlushCache] Flushing Organization Caches
Comment [12/28/2017 11:08:32 AM]: [5] -----------------------------------
c91f1694-9316-4cc5-a494-98e4106d80c2: Execute(Microsoft.Crm.Sdk.Messages.Internal.DebugFlushCacheRequest) at http://v-tagoon/contoso/XRMServices/2011/Organization.svc
Comment [12/28/2017 11:08:32 AM]: [5] c91f1694-9316-4cc5-a494-98e4106d80c2: Execute Completed (39.4865ms Elapsed) - Return Value: DebugFlushCache (Microsoft.Crm.Sdk.Messages.Internal.DebugFlushCacheResponse)
Comment [12/28/2017 11:08:32 AM]: [5] Organization cache flushed on the server
Comment [12/28/2017 11:08:32 AM]: [5] [AssemblyLocator] Ignoring XML Serializer "Microsoft.Crm.QA.BackEndProxy.XmlSerializers.dll"
Comment [12/28/2017 11:08:32 AM]: [5] Configuring Online 2011 AD CrmDiscoveryService Proxy for Organization "contoso" with User "Administrator@appcoreDOM.extest.microsoft.com"
Comment [12/28/2017 11:08:32 AM]: [5] Attempting to generate web service - Attempt 1
Comment [12/28/2017 11:08:32 AM]: [5] Discovery Proxy 57c58705-5e36-4b4f-9504-30b551efff89 Instantiated
Comment [12/28/2017 11:08:32 AM]: [5] -----------------------------------
57c58705-5e36-4b4f-9504-30b551efff89: Execute(Microsoft.Xrm.Sdk.Discovery.RetrieveOrganizationRequest) at http://192.168.53.27/XRMServices/2011/Discovery.svc
Comment [12/28/2017 11:08:32 AM]: [5] 57c58705-5e36-4b4f-9504-30b551efff89: Execute Completed (56.7975ms Elapsed) - Return Value: RetrieveOrganization (Microsoft.Xrm.Sdk.Discovery.RetrieveOrganizationResponse)
Comment [12/28/2017 11:08:32 AM]: [5] Using BackEndProxy Url : http://v-tagoon/QA/BackEndService.asmx
Comment [12/28/2017 11:08:32 AM]: [5] Configuring Online 2011 AD OrganizationService Proxy for Organization "contoso" with User "Administrator@appcoreDOM.extest.microsoft.com"
Comment [12/28/2017 11:08:32 AM]: [5] Attempting to generate web service - Attempt 1
Comment [12/28/2017 11:08:32 AM]: [5] Proxy 799e307a-c25d-4e7f-a361-001e8d596ff7's Internal Proxy Generated (9.0.1.53)
Comment [12/28/2017 11:08:32 AM]: [5] -----------------------------------
799e307a-c25d-4e7f-a361-001e8d596ff7: RetrieveMultiple(systemuser) at http://v-tagoon/contoso/XRMServices/2011/Organization.svc
Comment [12/28/2017 11:08:32 AM]: [5] 799e307a-c25d-4e7f-a361-001e8d596ff7: RetrieveMultiple Completed (16.9039ms Elapsed) - Return Value: Count = 0 (Microsoft.Xrm.Sdk.EntityCollection)
Comment [12/28/2017 11:08:32 AM]: [5] -----------------------------------
c91f1694-9316-4cc5-a494-98e4106d80c2: Execute(Microsoft.Crm.Sdk.Messages.WhoAmIRequest) at http://v-tagoon/contoso/XRMServices/2011/Organization.svc
Comment [12/28/2017 11:08:32 AM]: [5] c91f1694-9316-4cc5-a494-98e4106d80c2: Execute Completed (4.9816ms Elapsed) - Return Value: WhoAmI (Microsoft.Crm.Sdk.Messages.WhoAmIResponse)
Comment [12/28/2017 11:08:32 AM]: [5] -----------------------------------
799e307a-c25d-4e7f-a361-001e8d596ff7: Retrieve(systemuser, {027b4ad8-e5eb-e711-80e6-00155d350300}) at http://v-tagoon/contoso/XRMServices/2011/Organization.svc
Comment [12/28/2017 11:08:32 AM]: [5] 799e307a-c25d-4e7f-a361-001e8d596ff7: Retrieve Completed (6.5585ms Elapsed) - Return Value: systemuser (CrmSdk.SystemUser)
Comment [12/28/2017 11:08:32 AM]: [5] -----------------------------------
BackEndService.ExecuteRequest(RetrieveConfigDBRecordRequest) completed with exception (http://v-tagoon/QA/BackEndService.asmx): The file '/QA/BackEndService.asmx' does not exist..
Warning [12/28/2017 11:08:32 AM]: [5] Unable to determine if this is a One-Box deployment due to exception: Unhandled Exception: System.Web.Services.Protocols.SoapException: The file '/QA/BackEndService.asmx' does not exist.
Detail: 
<detail><error xmlns:xsd="http://www.w3.org/2001/XMLSchema" xmlns:xsi="http://www.w3.org/2001/XMLSchema-instance"><exception>Unhandled Exception: System.ServiceModel.FaultException`1[[Microsoft.Xrm.Sdk.OrganizationServiceFault, Microsoft.Xrm.Sdk, Version=9.0.0.0, Culture=neutral, PublicKeyToken=31bf3856ad364e35]]: System.Web.HttpException (0x80004005): The file '/QA/BackEndService.asmx' does not exist.
   at System.Web.UI.Util.CheckVirtualFileExists(VirtualPath virtualPath)
   at System.Web.Compilation.BuildManager.GetVPathBuildResultInternal(VirtualPath virtualPath, Boolean noBuild, Boolean allowCrossApp, Boolean allowBuildInPrecompile, Boolean throwIfNotFound, Boolean ensureIsUpToDate)
   at System.Web.Compilation.BuildManager.GetVPathBuildResultWithNoAssert(HttpContext context, VirtualPath virtualPath, Boolean noBuild, Boolean allowCrossApp, Boolean allowBuildInPrecompile, Boolean throwIfNotFound, Boolean ensureIsUpToDate)
   at System.Web.Compilation.BuildManager.GetVPathBuildResult(HttpContext context, VirtualPath virtualPath, Boolean noBuild, Boolean allowCrossApp, Boolean allowBuildInPrecompile, Boolean ensureIsUpToDate)
   at System.Web.Compilation.BuildManager.GetVPathBuildResult(HttpContext context, VirtualPath virtualPath)
   at System.Web.UI.WebServiceParser.GetCompiledType(String inputFile, HttpContext context)
   at System.Web.Services.Protocols.WebServiceHandlerFactory.GetCompiledType(String url, HttpContext context)
   at System.Web.Services.Protocols.WebServiceHandlerFactory.GetHandler(HttpContext context, String verb, String url, String filePath)
   at System.Web.Script.Services.ScriptHandlerFactory.GetHandler(HttpContext context, String requestType, String url, String pathTranslated)
   at System.Web.HttpApplication.MaterializeHandlerExecutionStep.System.Web.HttpApplication.IExecutionStep.Execute()
   at System.Web.HttpApplication.ExecuteStep(IExecutionStep step, Boolean&amp; completedSynchronously): Microsoft Dynamics CRM has experienced an error. Reference number for administrators or support: #DD99488DDetail: 
&lt;OrganizationServiceFault xmlns:i="http://www.w3.org/2001/XMLSchema-instance" xmlns="http://schemas.microsoft.com/xrm/2011/Contracts"&gt;
  &lt;ActivityId&gt;e6326d65-4ddc-4e72-946e-c36d083ae76c&lt;/ActivityId&gt;
  &lt;ErrorCode&gt;-2147220970&lt;/ErrorCode&gt;
  &lt;ErrorDetails xmlns:d2p1="http://schemas.datacontract.org/2004/07/System.Collections.Generic"&gt;
    &lt;KeyValuePairOfstringanyType&gt;
      &lt;d2p1:key&gt;CallStack&lt;/d2p1:key&gt;
      &lt;d2p1:value xmlns:d4p1="http://www.w3.org/2001/XMLSchema" i:type="d4p1:string"&gt;   at System.Web.UI.Util.CheckVirtualFileExists(VirtualPath virtualPath)
   at System.Web.Compilation.BuildManager.GetVPathBuildResultInternal(VirtualPath virtualPath, Boolean noBuild, Boolean allowCrossApp, Boolean allowBuildInPrecompile, Boolean throwIfNotFound, Boolean ensureIsUpToDate)
   at System.Web.Compilation.BuildManager.GetVPathBuildResultWithNoAssert(HttpContext context, VirtualPath virtualPath, Boolean noBuild, Boolean allowCrossApp, Boolean allowBuildInPrecompile, Boolean throwIfNotFound, Boolean ensureIsUpToDate)
   at System.Web.Compilation.BuildManager.GetVPathBuildResult(HttpContext context, VirtualPath virtualPath, Boolean noBuild, Boolean allowCrossApp, Boolean allowBuildInPrecompile, Boolean ensureIsUpToDate)
   at System.Web.Compilation.BuildManager.GetVPathBuildResult(HttpContext context, VirtualPath virtualPath)
   at System.Web.UI.WebServiceParser.GetCompiledType(String inputFile, HttpContext context)
   at System.Web.Services.Protocols.WebServiceHandlerFactory.GetCompiledType(String url, HttpContext context)
   at System.Web.Services.Protocols.WebServiceHandlerFactory.GetHandler(HttpContext context, String verb, String url, String filePath)
   at System.Web.Script.Services.ScriptHandlerFactory.GetHandler(HttpContext context, String requestType, String url, String pathTranslated)
   at System.Web.HttpApplication.MaterializeHandlerExecutionStep.System.Web.HttpApplication.IExecutionStep.Execute()
   at System.Web.HttpApplication.ExecuteStep(IExecutionStep step, Boolean&amp;amp; completedSynchronously)&lt;/d2p1:value&gt;
    &lt;/KeyValuePairOfstringanyType&gt;
  &lt;/ErrorDetails&gt;
  &lt;Message&gt;System.Web.HttpException (0x80004005): The file '/QA/BackEndService.asmx' does not exist.
   at System.Web.UI.Util.CheckVirtualFileExists(VirtualPath virtualPath)
   at System.Web.Compilation.BuildManager.GetVPathBuildResultInternal(VirtualPath virtualPath, Boolean noBuild, Boolean allowCrossApp, Boolean allowBuildInPrecompile, Boolean throwIfNotFound, Boolean ensureIsUpToDate)
   at System.Web.Compilation.BuildManager.GetVPathBuildResultWithNoAssert(HttpContext context, VirtualPath virtualPath, Boolean noBuild, Boolean allowCrossApp, Boolean allowBuildInPrecompile, Boolean throwIfNotFound, Boolean ensureIsUpToDate)
   at System.Web.Compilation.BuildManager.GetVPathBuildResult(HttpContext context, VirtualPath virtualPath, Boolean noBuild, Boolean allowCrossApp, Boolean allowBuildInPrecompile, Boolean ensureIsUpToDate)
   at System.Web.Compilation.BuildManager.GetVPathBuildResult(HttpContext context, VirtualPath virtualPath)
   at System.Web.UI.WebServiceParser.GetCompiledType(String inputFile, HttpContext context)
   at System.Web.Services.Protocols.WebServiceHandlerFactory.GetCompiledType(String url, HttpContext context)
   at System.Web.Services.Protocols.WebServiceHandlerFactory.GetHandler(HttpContext context, String verb, String url, String filePath)
   at System.Web.Script.Services.ScriptHandlerFactory.GetHandler(HttpContext context, String requestType, String url, String pathTranslated)
   at System.Web.HttpApplication.MaterializeHandlerExecutionStep.System.Web.HttpApplication.IExecutionStep.Execute()
   at System.Web.HttpApplication.ExecuteStep(IExecutionStep step, Boolean&amp;amp; completedSynchronously): Microsoft Dynamics CRM has experienced an error. Reference number for administrators or support: #DD99488D&lt;/Message&gt;
  &lt;Timestamp&gt;2017-12-28T19:08:32.8379854Z&lt;/Timestamp&gt;
  &lt;ExceptionRetriable&gt;false&lt;/ExceptionRetriable&gt;
  &lt;ExceptionSource i:nil="true" /&gt;
  &lt;InnerFault i:nil="true" /&gt;
  &lt;OriginalException i:nil="true" /&gt;
  &lt;TraceText i:nil="true" /&gt;
&lt;/OrganizationServiceFault&gt;

</exception><parameters xsi:nil="true" /><displaytitle /><displaytextencoded /><displaytext /><description>The file '/QA/BackEndService.asmx' does not exist.</description><file>Not available</file><line>Not available</line><details>The file '/QA/BackEndService.asmx' does not exist.</details><traceInfo /><requesturl>http://v-tagoon/QA/BackEndService.asmx</requesturl><pathAndQuery>/QA/BackEndService.asmx</pathAndQuery><source>SOAP</source><stacktrace>[HttpException: The file '/QA/BackEndService.asmx' does not exist.]
   at System.Web.UI.Util.CheckVirtualFileExists(VirtualPath virtualPath)
   at System.Web.Compilation.BuildManager.GetVPathBuildResultInternal(VirtualPath virtualPath, Boolean noBuild, Boolean allowCrossApp, Boolean allowBuildInPrecompile, Boolean throwIfNotFound, Boolean ensureIsUpToDate)
   at System.Web.Compilation.BuildManager.GetVPathBuildResultWithNoAssert(HttpContext context, VirtualPath virtualPath, Boolean noBuild, Boolean allowCrossApp, Boolean allowBuildInPrecompile, Boolean throwIfNotFound, Boolean ensureIsUpToDate)
   at System.Web.Compilation.BuildManager.GetVPathBuildResult(HttpContext context, VirtualPath virtualPath, Boolean noBuild, Boolean allowCrossApp, Boolean allowBuildInPrecompile, Boolean ensureIsUpToDate)
   at System.Web.Compilation.BuildManager.GetVPathBuildResult(HttpContext context, VirtualPath virtualPath)
   at System.Web.UI.WebServiceParser.GetCompiledType(String inputFile, HttpContext context)
   at System.Web.Services.Protocols.WebServiceHandlerFactory.GetCompiledType(String url, HttpContext context)
   at System.Web.Services.Protocols.WebServiceHandlerFactory.GetHandler(HttpContext context, String verb, String url, String filePath)
   at System.Web.Script.Services.ScriptHandlerFactory.GetHandler(HttpContext context, String requestType, String url, String pathTranslated)
   at System.Web.HttpApplication.MaterializeHandlerExecutionStep.System.Web.HttpApplication.IExecutionStep.Execute()
   at System.Web.HttpApplication.ExecuteStep(IExecutionStep step, Boolean&amp; completedSynchronously)

</stacktrace></error></detail>
   at System.Web.Services.Protocols.SoapHttpClientProtocol.ReadResponse(SoapClientMessage message, WebResponse response, Stream responseStream, Boolean asyncCall)
   at System.Web.Services.Protocols.SoapHttpClientProtocol.Invoke(String methodName, Object[] parameters)
   at Microsoft.Crm.QA.Libraries.BackEnd.BackEndService.Execute(BackEndRequest request)
   at Microsoft.Crm.QA.Libraries.BackEnd.BackEndProxy.ExecuteRequest(BackEndRequest request)
   at Microsoft.Crm.QA.Libraries.CacheManagement.CacheUtility.get_IsOneBoxDeployment()

Comment [12/28/2017 11:08:32 AM]: [5] -----------------------------------
799e307a-c25d-4e7f-a361-001e8d596ff7: Execute(Microsoft.Crm.Sdk.Messages.Internal.CheckNotificationsRequest) at http://v-tagoon/contoso/XRMServices/2011/Organization.svc
Comment [12/28/2017 11:08:32 AM]: [5] 799e307a-c25d-4e7f-a361-001e8d596ff7: Execute Completed (15.8721ms Elapsed) - Return Value: CheckNotifications (Microsoft.Crm.Sdk.Messages.Internal.CheckNotificationsResponse)
Comment [12/28/2017 11:08:32 AM]: [5] [WaitForCacheFlush] Sleeping for 10.000s
Comment [12/28/2017 11:08:42 AM]: [5] Begin Block: ReadOptimizedFormSdk.SetUserLevelROSetting
Comment [12/28/2017 11:08:42 AM]: [5] Begin Block: ReadOptimizedFormSdk.SetUserLevelROSetting
Comment [12/28/2017 11:08:42 AM]: [5]  --> Setting user-level RO value to OrganizationDefault (SDK value: 0) through SDK (current user: Administrator, SDK-executing user: Administrator)
Comment [12/28/2017 11:08:42 AM]: [5] -----------------------------------
84b85c93-1a64-43f8-bfe4-16eead29678f: Execute(Microsoft.Crm.Sdk.Messages.UpdateUserSettingsSystemUserRequest) at http://v-tagoon/contoso/XRMServices/2011/Organization.svc
Comment [12/28/2017 11:08:42 AM]: [5] 84b85c93-1a64-43f8-bfe4-16eead29678f: Execute Completed (68.3113ms Elapsed) - Return Value: UpdateUserSettingsSystemUser (Microsoft.Crm.Sdk.Messages.UpdateUserSettingsSystemUserResponse)
FAILURE [12/28/2017 11:08:42 AM]: [5] Unhandled Exception: System.NullReferenceException: Object reference not set to an instance of an object.
   at TestCases.Performance.UI.PerceivedPerformanceBase.TearDown()
   at TestCases.Performance.UI.PerceivedPerformance.TearDown()
   at Microsoft.Crm.QA.Utf.TestBase.InvokeTearDown()

Screenshot [12/28/2017 11:08:43 AM]: C:\crmdrop\crmdrop\TestCases\ScreenShots\20171228070842-0.jpg
Warning [12/28/2017 11:08:43 AM]: [5] [VSTSRMLog] - TestCaseId is not set in the testmethod.
Comment [12/28/2017 11:08:43 AM]: [5] Platform Windows, browser Chrome, Device Host Machine , Device Host User , Device Host Password , Device Id , Device Name , Device OS .
Comment [12/28/2017 11:08:43 AM]: [5] Context e5829872-a840-48ab-a97d-b8b1fef51db7 Instantiated TestClientMode:WebApp
Comment [12/28/2017 11:08:43 AM]: [5] Proxy 3394cd25-d18d-48fa-aa35-0858ff9cc737 Instantiated
Comment [12/28/2017 11:08:43 AM]: [5] Configuring Online 2011 AD OrganizationService Proxy for Organization "contoso" with User "Administrator@appcoreDOM.extest.microsoft.com"
Comment [12/28/2017 11:08:43 AM]: [5] Attempting to generate web service - Attempt 1
Comment [12/28/2017 11:08:43 AM]: [5] Proxy 3394cd25-d18d-48fa-aa35-0858ff9cc737's Internal Proxy Generated (9.0.1.53)
Comment [12/28/2017 11:08:43 AM]: [5] -----------------------------------
3394cd25-d18d-48fa-aa35-0858ff9cc737: Execute(Microsoft.Crm.Sdk.Messages.Internal.DebugTraceBufferGetContentsRequest) at http://v-tagoon/contoso/XRMServices/2011/Organization.svc
Comment [12/28/2017 11:08:43 AM]: [5] 3394cd25-d18d-48fa-aa35-0858ff9cc737: Execute Completed (49.4142ms Elapsed) - Return Value: DebugTraceBufferGetContents (Microsoft.Crm.Sdk.Messages.Internal.DebugTraceBufferGetContentsResponse)
Comment [12/28/2017 11:08:43 AM]: [5] Wrote 0 lines of trace information to file C:\crmdrop\crmdrop\TestCases\TraceLogs\Server-TraceLog20171228070843-0.log
File [12/28/2017 11:08:43 AM]: C:\crmdrop\crmdrop\TestCases\TraceLogs\Server-TraceLog20171228070843-0.log
Comment [12/28/2017 11:08:43 AM]: [5] Proxy 3394cd25-d18d-48fa-aa35-0858ff9cc737 Disposed
Comment [12/28/2017 11:08:43 AM]: [5] Context e5829872-a840-48ab-a97d-b8b1fef51db7 Disposed
Comment [12/28/2017 11:08:43 AM]: [5] Using Outlook Proceesses to determine client type
Comment [12/28/2017 11:08:43 AM]: [5] No Outlook Processes found.
Comment [12/28/2017 11:08:43 AM]: [5] Processing Open browsers for script errors
Comment [12/28/2017 11:08:43 AM]: [5] Done dealing with script errors
----[End QAPerformance.exe+TestCases.Performance.UI.PerceivedPerformance.OpenContactFormCold: 2 Failure(s), 8 Warning(s), 0 Pass(es), 0 Watsons; 00:05:16.5286305]----

----[Start TestCases.Performance.UI.FirstPagePerceivedPerformance.OpenContactFormCold]----

Comment [12/28/2017 11:08:43 AM]: [1] Running test in QAPerformance domain.
Comment [12/28/2017 11:08:43 AM]: [18] Setting TestBase.TestMethodName as "OpenContactFormCold"
Comment [12/28/2017 11:08:43 AM]: [18] Setting form mode to Edit form.
Comment [12/28/2017 11:08:43 AM]: [18] Update TakeOutlookDump registry value: 1
Comment [12/28/2017 11:08:43 AM]: [18] Seed is being set to:1537119897
Comment [12/28/2017 11:08:43 AM]: [18] Platform Windows, browser Chrome, Device Host Machine , Device Host User , Device Host Password , Device Id , Device Name , Device OS .
Comment [12/28/2017 11:08:43 AM]: [18] Context 99cfb9f8-a410-4525-b78b-e71076832c57 Instantiated TestClientMode:WebApp
Comment [12/28/2017 11:08:43 AM]: [18] Platform Windows, browser Chrome, Device Host Machine , Device Host User , Device Host Password , Device Id , Device Name , Device OS .
Comment [12/28/2017 11:08:43 AM]: [18] Context 8ccd7cfa-2407-43d6-b724-2fff26613f3f Instantiated TestClientMode:WebApp
Warning [12/28/2017 11:08:43 AM]: [18] [Desktop.Initialize] Desktop.Initialize()called although Desktop has already been initialized with automation context Platform Windows, browser Chrome, Device Host Machine , Device Host User , Device Host Password , Device Id , Device Name , Device OS .. Returning current desktop.
Comment [12/28/2017 11:08:43 AM]: [18] Context 7dcf5a0d-57dc-4f3f-987c-3de8d809ccd1 Instantiated TestClientMode:WebApp
Comment [12/28/2017 11:08:43 AM]: [18] Proxy 29f853e3-12a6-46d7-b60f-44f211c6d31c Instantiated
Comment [12/28/2017 11:08:43 AM]: [18] Configuring Online 2011 AD OrganizationService Proxy for Organization "contoso" with User "Administrator@appcoreDOM.extest.microsoft.com"
Comment [12/28/2017 11:08:43 AM]: [18] Attempting to generate web service - Attempt 1
Comment [12/28/2017 11:08:43 AM]: [18] Proxy 29f853e3-12a6-46d7-b60f-44f211c6d31c's Internal Proxy Generated (9.0.1.53)
Comment [12/28/2017 11:08:43 AM]: [18] Proxy 6e6ebdb6-d2ac-4b0d-abbc-7ed381141024 Instantiated
Comment [12/28/2017 11:08:43 AM]: [18] Configuring Online 2011 AD OrganizationService Proxy for Organization "contoso" with User "Administrator@appcoreDOM"
Comment [12/28/2017 11:08:43 AM]: [18] Attempting to generate web service - Attempt 1
Comment [12/28/2017 11:08:45 AM]: [18] Proxy 6e6ebdb6-d2ac-4b0d-abbc-7ed381141024's Internal Proxy Generated (9.0.1.53)
Warning [12/28/2017 11:08:45 AM]: [18] Proxy 29f853e3-12a6-46d7-b60f-44f211c6d31c Timeout Changed from 00:02:00 to 00:05:00
Warning [12/28/2017 11:08:45 AM]: [18] Proxy 6e6ebdb6-d2ac-4b0d-abbc-7ed381141024 Timeout Changed from 00:02:00 to 00:05:00
Comment [12/28/2017 11:08:45 AM]: [18] -----------------------------------
29f853e3-12a6-46d7-b60f-44f211c6d31c: RetrieveMultiple(systemuser) at http://v-tagoon/contoso/XRMServices/2011/Organization.svc
Comment [12/28/2017 11:08:45 AM]: [18] 29f853e3-12a6-46d7-b60f-44f211c6d31c: RetrieveMultiple Completed (14.2598ms Elapsed) - Return Value: Count = 0 (Microsoft.Xrm.Sdk.EntityCollection)
Comment [12/28/2017 11:08:45 AM]: [18] -----------------------------------
6e6ebdb6-d2ac-4b0d-abbc-7ed381141024: Execute(Microsoft.Crm.Sdk.Messages.WhoAmIRequest) at http://v-tagoon/contoso/XRMServices/2011/Organization.svc
Comment [12/28/2017 11:08:45 AM]: [18] 6e6ebdb6-d2ac-4b0d-abbc-7ed381141024: Execute Completed (11.9625ms Elapsed) - Return Value: WhoAmI (Microsoft.Crm.Sdk.Messages.WhoAmIResponse)
Comment [12/28/2017 11:08:45 AM]: [18] -----------------------------------
29f853e3-12a6-46d7-b60f-44f211c6d31c: Execute(Microsoft.Xrm.Sdk.Messages.RetrieveMultipleRequest) at http://v-tagoon/contoso/XRMServices/2011/Organization.svc
Comment [12/28/2017 11:08:45 AM]: [18] 29f853e3-12a6-46d7-b60f-44f211c6d31c: Execute Completed (7.3147ms Elapsed) - Return Value: RetrieveMultiple (Microsoft.Xrm.Sdk.Messages.RetrieveMultipleResponse)
Comment [12/28/2017 11:08:45 AM]: [18] -----------------------------------
29f853e3-12a6-46d7-b60f-44f211c6d31c: Retrieve(role, {73724ad8-e5eb-e711-80e6-00155d350300}) at http://v-tagoon/contoso/XRMServices/2011/Organization.svc
Comment [12/28/2017 11:08:45 AM]: [18] 29f853e3-12a6-46d7-b60f-44f211c6d31c: Retrieve Completed (5.8557ms Elapsed) - Return Value: role (CrmSdk.Role)
Warning [12/28/2017 11:08:45 AM]: [18] Proxy 29f853e3-12a6-46d7-b60f-44f211c6d31c Timeout Changed from 00:05:00 to 00:02:00
Warning [12/28/2017 11:08:45 AM]: [18] Proxy 6e6ebdb6-d2ac-4b0d-abbc-7ed381141024 Timeout Changed from 00:05:00 to 00:02:00
Comment [12/28/2017 11:08:45 AM]: [18] This testcase will be run in the context of this role:System Administrator
Comment [12/28/2017 11:08:45 AM]: [18] -----------------------------------
29f853e3-12a6-46d7-b60f-44f211c6d31c: Retrieve(systemuser, {027b4ad8-e5eb-e711-80e6-00155d350300}) at http://v-tagoon/contoso/XRMServices/2011/Organization.svc
Comment [12/28/2017 11:08:45 AM]: [18] 29f853e3-12a6-46d7-b60f-44f211c6d31c: Retrieve Completed (14.2089ms Elapsed) - Return Value: systemuser (CrmSdk.SystemUser)
Comment [12/28/2017 11:08:45 AM]: [18] -----------------------------------
29f853e3-12a6-46d7-b60f-44f211c6d31c: Retrieve(systemuser, {027b4ad8-e5eb-e711-80e6-00155d350300}) at http://v-tagoon/contoso/XRMServices/2011/Organization.svc
Comment [12/28/2017 11:08:45 AM]: [18] 29f853e3-12a6-46d7-b60f-44f211c6d31c: Retrieve Completed (7.4478ms Elapsed) - Return Value: systemuser (CrmSdk.SystemUser)
Comment [12/28/2017 11:08:45 AM]: [18] -----------------------------------
6e6ebdb6-d2ac-4b0d-abbc-7ed381141024: Retrieve(organization, {95198255-1b68-4aca-91d7-c4dd7bee3ee7}) at http://v-tagoon/contoso/XRMServices/2011/Organization.svc
Comment [12/28/2017 11:08:45 AM]: [18] 6e6ebdb6-d2ac-4b0d-abbc-7ed381141024: Retrieve Completed (11.9115ms Elapsed) - Return Value: organization (CrmSdk.Organization)
Comment [12/28/2017 11:08:45 AM]: [18] -----------------------------------
29f853e3-12a6-46d7-b60f-44f211c6d31c: RetrieveMultiple(organization) at http://v-tagoon/contoso/XRMServices/2011/Organization.svc
Comment [12/28/2017 11:08:45 AM]: [18] 29f853e3-12a6-46d7-b60f-44f211c6d31c: RetrieveMultiple Completed (7.5344ms Elapsed) - Return Value: Count = 1 (Microsoft.Xrm.Sdk.EntityCollection)
Comment [12/28/2017 11:08:45 AM]: [18] [EnableDefaultPublisherForOfflineIfOutlookMode] The context is not an Outlook context.
Comment [12/28/2017 11:08:45 AM]: [18] -----------------------------------
29f853e3-12a6-46d7-b60f-44f211c6d31c: Execute(Microsoft.Xrm.Sdk.Messages.RetrieveEntityRequest) at http://v-tagoon/contoso/XRMServices/2011/Organization.svc
Comment [12/28/2017 11:08:46 AM]: [18] 29f853e3-12a6-46d7-b60f-44f211c6d31c: Execute Completed (311.1628ms Elapsed) - Return Value: RetrieveEntity (Microsoft.Xrm.Sdk.Messages.RetrieveEntityResponse)
Comment [12/28/2017 11:08:46 AM]: [18] -----------------------------------
6e6ebdb6-d2ac-4b0d-abbc-7ed381141024: Execute(Microsoft.Crm.Sdk.Messages.RetrieveUserSettingsSystemUserRequest) at http://v-tagoon/contoso/XRMServices/2011/Organization.svc
Comment [12/28/2017 11:08:46 AM]: [18] 6e6ebdb6-d2ac-4b0d-abbc-7ed381141024: Execute Completed (6.7299ms Elapsed) - Return Value: RetrieveUserSettingsSystemUser (Microsoft.Crm.Sdk.Messages.RetrieveUserSettingsSystemUserResponse)
Comment [12/28/2017 11:08:46 AM]: [18] -----------------------------------
29f853e3-12a6-46d7-b60f-44f211c6d31c: Execute(Microsoft.Crm.Sdk.Messages.UpdateUserSettingsSystemUserRequest) at http://v-tagoon/contoso/XRMServices/2011/Organization.svc
Comment [12/28/2017 11:08:46 AM]: [18] 29f853e3-12a6-46d7-b60f-44f211c6d31c: Execute Completed (13.1593ms Elapsed) - Return Value: UpdateUserSettingsSystemUser (Microsoft.Crm.Sdk.Messages.UpdateUserSettingsSystemUserResponse)
Comment [12/28/2017 11:08:46 AM]: [18] -----------------------------------
6e6ebdb6-d2ac-4b0d-abbc-7ed381141024: RetrieveMultiple(userentityuisettings) at http://v-tagoon/contoso/XRMServices/2011/Organization.svc
Comment [12/28/2017 11:08:46 AM]: [18] 6e6ebdb6-d2ac-4b0d-abbc-7ed381141024: RetrieveMultiple Completed (29.6028ms Elapsed) - Return Value: Count = 5 (Microsoft.Xrm.Sdk.EntityCollection)
Comment [12/28/2017 11:08:46 AM]: [18] [RefreshFormOrder] Removing the LastViewedFormXml for the Entities with ObjectTypeCode = 1, 2, 4, 3, 112
Comment [12/28/2017 11:08:46 AM]: [18] -----------------------------------
6e6ebdb6-d2ac-4b0d-abbc-7ed381141024: Update(CrmSdk.UserEntityUISettings [LogicalName = userentityuisettings]) at http://v-tagoon/contoso/XRMServices/2011/Organization.svc
Comment [12/28/2017 11:08:46 AM]: [18] 6e6ebdb6-d2ac-4b0d-abbc-7ed381141024: Update Completed (11.6009ms Elapsed)
Comment [12/28/2017 11:08:46 AM]: [18] -----------------------------------
6e6ebdb6-d2ac-4b0d-abbc-7ed381141024: Update(CrmSdk.UserEntityUISettings [LogicalName = userentityuisettings]) at http://v-tagoon/contoso/XRMServices/2011/Organization.svc
Comment [12/28/2017 11:08:46 AM]: [18] 6e6ebdb6-d2ac-4b0d-abbc-7ed381141024: Update Completed (11.9984ms Elapsed)
Comment [12/28/2017 11:08:46 AM]: [18] -----------------------------------
6e6ebdb6-d2ac-4b0d-abbc-7ed381141024: Update(CrmSdk.UserEntityUISettings [LogicalName = userentityuisettings]) at http://v-tagoon/contoso/XRMServices/2011/Organization.svc
Comment [12/28/2017 11:08:46 AM]: [18] 6e6ebdb6-d2ac-4b0d-abbc-7ed381141024: Update Completed (11.6329ms Elapsed)
Comment [12/28/2017 11:08:46 AM]: [18] -----------------------------------
6e6ebdb6-d2ac-4b0d-abbc-7ed381141024: Update(CrmSdk.UserEntityUISettings [LogicalName = userentityuisettings]) at http://v-tagoon/contoso/XRMServices/2011/Organization.svc
Comment [12/28/2017 11:08:46 AM]: [18] 6e6ebdb6-d2ac-4b0d-abbc-7ed381141024: Update Completed (11.3704ms Elapsed)
Comment [12/28/2017 11:08:46 AM]: [18] -----------------------------------
6e6ebdb6-d2ac-4b0d-abbc-7ed381141024: Update(CrmSdk.UserEntityUISettings [LogicalName = userentityuisettings]) at http://v-tagoon/contoso/XRMServices/2011/Organization.svc
Comment [12/28/2017 11:08:46 AM]: [18] 6e6ebdb6-d2ac-4b0d-abbc-7ed381141024: Update Completed (11.943ms Elapsed)
Comment [12/28/2017 11:08:46 AM]: [18] -----------------------------------
6e6ebdb6-d2ac-4b0d-abbc-7ed381141024: RetrieveMultiple(userentityuisettings) at http://v-tagoon/contoso/XRMServices/2011/Organization.svc
Comment [12/28/2017 11:08:46 AM]: [18] 6e6ebdb6-d2ac-4b0d-abbc-7ed381141024: RetrieveMultiple Completed (7.2203ms Elapsed) - Return Value: Count = 5 (Microsoft.Xrm.Sdk.EntityCollection)
Comment [12/28/2017 11:08:46 AM]: [18] [RefreshFormOrder] Setting the LastViewedFormXml for the Entities with ObjectTypeCode = 1, 2, 4, 3, 112
Comment [12/28/2017 11:08:46 AM]: [18] -----------------------------------
6e6ebdb6-d2ac-4b0d-abbc-7ed381141024: Update(CrmSdk.UserEntityUISettings [LogicalName = userentityuisettings]) at http://v-tagoon/contoso/XRMServices/2011/Organization.svc
Comment [12/28/2017 11:08:46 AM]: [18] 6e6ebdb6-d2ac-4b0d-abbc-7ed381141024: Update Completed (11.9197ms Elapsed)
Comment [12/28/2017 11:08:46 AM]: [18] -----------------------------------
6e6ebdb6-d2ac-4b0d-abbc-7ed381141024: Update(CrmSdk.UserEntityUISettings [LogicalName = userentityuisettings]) at http://v-tagoon/contoso/XRMServices/2011/Organization.svc
Comment [12/28/2017 11:08:46 AM]: [18] 6e6ebdb6-d2ac-4b0d-abbc-7ed381141024: Update Completed (11.8398ms Elapsed)
Comment [12/28/2017 11:08:46 AM]: [18] -----------------------------------
6e6ebdb6-d2ac-4b0d-abbc-7ed381141024: Update(CrmSdk.UserEntityUISettings [LogicalName = userentityuisettings]) at http://v-tagoon/contoso/XRMServices/2011/Organization.svc
Comment [12/28/2017 11:08:46 AM]: [18] 6e6ebdb6-d2ac-4b0d-abbc-7ed381141024: Update Completed (12.7067ms Elapsed)
Comment [12/28/2017 11:08:46 AM]: [18] -----------------------------------
6e6ebdb6-d2ac-4b0d-abbc-7ed381141024: Update(CrmSdk.UserEntityUISettings [LogicalName = userentityuisettings]) at http://v-tagoon/contoso/XRMServices/2011/Organization.svc
Comment [12/28/2017 11:08:46 AM]: [18] 6e6ebdb6-d2ac-4b0d-abbc-7ed381141024: Update Completed (12.3042ms Elapsed)
Comment [12/28/2017 11:08:46 AM]: [18] -----------------------------------
6e6ebdb6-d2ac-4b0d-abbc-7ed381141024: Update(CrmSdk.UserEntityUISettings [LogicalName = userentityuisettings]) at http://v-tagoon/contoso/XRMServices/2011/Organization.svc
Comment [12/28/2017 11:08:46 AM]: [18] 6e6ebdb6-d2ac-4b0d-abbc-7ed381141024: Update Completed (13.5394ms Elapsed)
Warning [12/28/2017 11:13:46 AM]: [18] Client failed to start. Test case will fail ahead. System.Runtime.InteropServices.COMException (0x8007203A): The server is not operational.

   at System.DirectoryServices.DirectoryEntry.Bind(Boolean throwIfFail)
   at System.DirectoryServices.DirectoryEntry.Bind()
   at System.DirectoryServices.DirectoryEntry.get_AdsObject()
   at System.DirectoryServices.PropertyValueCollection.PopulateList()
   at System.DirectoryServices.PropertyValueCollection..ctor(DirectoryEntry entry, String propertyName)
   at System.DirectoryServices.PropertyCollection.get_Item(String propertyName)
   at Microsoft.Crm.QA.Automation.ADSI.getDNS(String domain)
   at Microsoft.Crm.QA.Automation.ADSI..ctor(String adminName, String adminPassword, String userDomain, String serverDomain)
   at Microsoft.Crm.QA.Libraries.OrgManagement.OrgLibraryFactory.CreateOrgLibrary(CrmAdminContext adminContext)
   at Microsoft.Crm.QA.UICommonFramework.UITest.SetMarketingAndToolsAsWorkplaceDefault()
   at Microsoft.Crm.QA.UICommonFramework.UITest.SetUp()
   at Microsoft.Crm.QA.UICommonFramework.UITestBase.SetUp()
FAILURE [12/28/2017 11:13:46 AM]: [18] Unhandled Exception: System.NullReferenceException: Object reference not set to an instance of an object.
   at TestCases.Performance.UI.PerceivedPerformanceBase.CallIsEnabledPerformanceMarker()
   at TestCases.Performance.UI.PerceivedPerformanceBase.SetUp()
   at TestCases.Performance.UI.PerceivedPerformance.SetUp()
   at Microsoft.Crm.QA.Utf.TestBase.InvokeSetUp()

Screenshot [12/28/2017 11:13:46 AM]: C:\crmdrop\crmdrop\TestCases\ScreenShots\20171228071346-0.jpg
Warning [12/28/2017 11:13:46 AM]: [18] [VSTSRMLog] - TestCaseId is not set in the testmethod.
FAILURE [12/28/2017 11:13:46 AM]: [2] SdkProxyWithCleanup 799e307a-c25d-4e7f-a361-001e8d596ff7 was not properly disposed, the offending call stack that constructed this proxy is 
   at Microsoft.Crm.QA.Utils.SdkProxyWithCleanup..ctor(ISdkProxy innerProxy)
   at Microsoft.Crm.QA.Utils.SdkProxy.CreateProxy(IUserContext userContext, CrmRunInfo runInfo, SdkProxyMode proxyMode, Boolean proxyWithCleanup)
   at Microsoft.Crm.QA.Utils.CrmContext.get_ServerProxy()
   at Microsoft.Crm.QA.Libraries.CacheManagement.CacheUtility..ctor(CrmContext context, SdkProxyMode proxyMode)
   at Microsoft.Crm.QA.Libraries.CacheManagement.CacheUtility..ctor(CrmContext context)
   at Microsoft.Crm.QA.Blocks.Infrastructure.ReadOptimizedForm.ReadOptimizedFormSdk.SetOrgLevelROSetting(CrmContext context, OrgLevelROMode roValue)
   at TestCases.Performance.PerformanceCommon.RestoreROFormSettings()
   at TestCases.Performance.UI.PerceivedPerformance.TearDown()
   at Microsoft.Crm.QA.Utf.TestBase.InvokeTearDown()
   at Microsoft.Crm.QA.Utf.TestBase.InternalExecute()
   at Microsoft.Crm.QA.Utf.Command.Execute()
   at Microsoft.Crm.QA.Utf.TimedExecute.DoExecute(Object parameter)
   at System.Threading.ExecutionContext.RunInternal(ExecutionContext executionContext, ContextCallback callback, Object state, Boolean preserveSyncCtx)
   at System.Threading.ExecutionContext.Run(ExecutionContext executionContext, ContextCallback callback, Object state, Boolean preserveSyncCtx)
   at System.Threading.ExecutionContext.Run(ExecutionContext executionContext, ContextCallback callback, Object state)
   at System.Threading.ThreadHelper.ThreadStart(Object obj)
 

 (NB:  This call stack may indicate a separate test case) 


   at Microsoft.Crm.QA.Utf.Log.Fail(LogType type, String message, Object[] args)
   at Microsoft.Crm.QA.Utf.Log.Fail(String message, Object[] args)
   at Microsoft.Crm.QA.Utils.SdkProxyWithCleanup.Dispose(Boolean disposing)
   at Microsoft.Crm.QA.Utils.SdkProxyWithCleanup.Finalize()

Screenshot [12/28/2017 11:13:46 AM]: C:\crmdrop\crmdrop\TestCases\ScreenShots\20171228071346-1.jpg
Warning [12/28/2017 11:13:46 AM]: [2] [VSTSRMLog] - TestCaseId is not set in the testmethod.
Comment [12/28/2017 11:13:46 AM]: [18] Platform Windows, browser Chrome, Device Host Machine , Device Host User , Device Host Password , Device Id , Device Name , Device OS .
FAILURE [12/28/2017 11:13:46 AM]: [2] SdkProxyWithCleanup 84b85c93-1a64-43f8-bfe4-16eead29678f was not properly disposed, the offending call stack that constructed this proxy is 
   at Microsoft.Crm.QA.Utils.SdkProxyWithCleanup..ctor(ISdkProxy innerProxy)
   at Microsoft.Crm.QA.Utils.SdkProxy.CreateProxy(IUserContext userContext, CrmRunInfo runInfo, SdkProxyMode proxyMode, Boolean proxyWithCleanup)
   at Microsoft.Crm.QA.Utils.CrmContext.get_ServerProxy()
   at Microsoft.Crm.QA.Utils.SdkTest.SetUp()
   at Microsoft.Crm.QA.Utils.WhoAmISdkTest.SetUp()
   at Microsoft.Crm.QA.UICommonFramework.UITest.SetUp()
   at Microsoft.Crm.QA.UICommonFramework.UITestBase.SetUp()
   at TestCases.Performance.UI.PerceivedPerformanceBase.SetUp()
   at TestCases.Performance.UI.PerceivedPerformance.SetUp()
   at Microsoft.Crm.QA.Utf.TestBase.InvokeSetUp()
   at Microsoft.Crm.QA.Utf.TestBase.InternalExecute()
   at Microsoft.Crm.QA.Utf.Command.Execute()
   at Microsoft.Crm.QA.Utf.TimedExecute.DoExecute(Object parameter)
   at System.Threading.ExecutionContext.RunInternal(ExecutionContext executionContext, ContextCallback callback, Object state, Boolean preserveSyncCtx)
   at System.Threading.ExecutionContext.Run(ExecutionContext executionContext, ContextCallback callback, Object state, Boolean preserveSyncCtx)
   at System.Threading.ExecutionContext.Run(ExecutionContext executionContext, ContextCallback callback, Object state)
   at System.Threading.ThreadHelper.ThreadStart(Object obj)
 

 (NB:  This call stack may indicate a separate test case) 


   at Microsoft.Crm.QA.Utf.Log.Fail(LogType type, String message, Object[] args)
   at Microsoft.Crm.QA.Utf.Log.Fail(String message, Object[] args)
   at Microsoft.Crm.QA.Utils.SdkProxyWithCleanup.Dispose(Boolean disposing)
   at Microsoft.Crm.QA.Utils.SdkProxyWithCleanup.Finalize()

Screenshot [12/28/2017 11:13:46 AM]: C:\crmdrop\crmdrop\TestCases\ScreenShots\20171228071346-2.jpg
Warning [12/28/2017 11:13:46 AM]: [2] [VSTSRMLog] - TestCaseId is not set in the testmethod.
Comment [12/28/2017 11:13:46 AM]: [18] Context 1256ab77-d10c-4ad4-8332-de66ad2cd709 Instantiated TestClientMode:WebApp
Comment [12/28/2017 11:13:46 AM]: [18] Proxy a1d76780-06cc-4fd4-a5c4-92238e8b5d23 Instantiated
Comment [12/28/2017 11:13:46 AM]: [18] Configuring Online 2011 AD OrganizationService Proxy for Organization "contoso" with User "Administrator@appcoreDOM.extest.microsoft.com"
Comment [12/28/2017 11:13:46 AM]: [18] Attempting to generate web service - Attempt 1
FAILURE [12/28/2017 11:13:46 AM]: [2] SdkProxyWithCleanup 3d548332-e1a5-4733-acec-0e0a1404fa06 was not properly disposed, the offending call stack that constructed this proxy is 
   at Microsoft.Crm.QA.Utils.SdkProxyWithCleanup..ctor(ISdkProxy innerProxy)
   at Microsoft.Crm.QA.Utils.SdkProxy.CreateProxy(IUserContext userContext, CrmRunInfo runInfo, SdkProxyMode proxyMode, Boolean proxyWithCleanup)
   at Microsoft.Crm.QA.Utils.CrmContext.get_ServerProxy()
   at Microsoft.Crm.QA.Utils.SdkTest.SetUp()
   at Microsoft.Crm.QA.Utils.WhoAmISdkTest.SetUp()
   at Microsoft.Crm.QA.UICommonFramework.UITest.SetUp()
   at Microsoft.Crm.QA.UICommonFramework.UITestBase.SetUp()
   at TestCases.Performance.UI.PerceivedPerformanceBase.SetUp()
   at TestCases.Performance.UI.PerceivedPerformance.SetUp()
   at Microsoft.Crm.QA.Utf.TestBase.InvokeSetUp()
   at Microsoft.Crm.QA.Utf.TestBase.InternalExecute()
   at Microsoft.Crm.QA.Utf.Command.Execute()
   at Microsoft.Crm.QA.Utf.TimedExecute.DoExecute(Object parameter)
   at System.Threading.ExecutionContext.RunInternal(ExecutionContext executionContext, ContextCallback callback, Object state, Boolean preserveSyncCtx)
   at System.Threading.ExecutionContext.Run(ExecutionContext executionContext, ContextCallback callback, Object state, Boolean preserveSyncCtx)
   at System.Threading.ExecutionContext.Run(ExecutionContext executionContext, ContextCallback callback, Object state)
   at System.Threading.ThreadHelper.ThreadStart(Object obj)
 

 (NB:  This call stack may indicate a separate test case) 


   at Microsoft.Crm.QA.Utf.Log.Fail(LogType type, String message, Object[] args)
   at Microsoft.Crm.QA.Utf.Log.Fail(String message, Object[] args)
   at Microsoft.Crm.QA.Utils.SdkProxyWithCleanup.Dispose(Boolean disposing)
   at Microsoft.Crm.QA.Utils.SdkProxyWithCleanup.Finalize()

Screenshot [12/28/2017 11:13:46 AM]: C:\crmdrop\crmdrop\TestCases\ScreenShots\20171228071346-3.jpg
Warning [12/28/2017 11:13:46 AM]: [2] [VSTSRMLog] - TestCaseId is not set in the testmethod.
FAILURE [12/28/2017 11:13:46 AM]: [2] SdkProxyWithCleanup c91f1694-9316-4cc5-a494-98e4106d80c2 was not properly disposed, the offending call stack that constructed this proxy is 
   at Microsoft.Crm.QA.Utils.SdkProxyWithCleanup..ctor(ISdkProxy innerProxy)
   at Microsoft.Crm.QA.Utils.SdkProxy.CreateProxy(IUserContext userContext, CrmRunInfo runInfo, SdkProxyMode proxyMode, Boolean proxyWithCleanup)
   at Microsoft.Crm.QA.Utils.CrmContext.get_ServerProxy()
   at Microsoft.Crm.QA.Utils.CrmContext.RetrieveOrganizationId()
   at Microsoft.Crm.QA.Blocks.Infrastructure.ReadOptimizedForm.ReadOptimizedFormSdk.GetCurrentOrg(CrmContext context)
   at Microsoft.Crm.QA.Blocks.Infrastructure.ReadOptimizedForm.ReadOptimizedFormSdk.SetOrgLevelROSetting(CrmContext context, OrgLevelROMode roValue)
   at TestCases.Performance.PerformanceCommon.RestoreROFormSettings()
   at TestCases.Performance.UI.PerceivedPerformance.TearDown()
   at Microsoft.Crm.QA.Utf.TestBase.InvokeTearDown()
   at Microsoft.Crm.QA.Utf.TestBase.InternalExecute()
   at Microsoft.Crm.QA.Utf.Command.Execute()
   at Microsoft.Crm.QA.Utf.TimedExecute.DoExecute(Object parameter)
   at System.Threading.ExecutionContext.RunInternal(ExecutionContext executionContext, ContextCallback callback, Object state, Boolean preserveSyncCtx)
   at System.Threading.ExecutionContext.Run(ExecutionContext executionContext, ContextCallback callback, Object state, Boolean preserveSyncCtx)
   at System.Threading.ExecutionContext.Run(ExecutionContext executionContext, ContextCallback callback, Object state)
   at System.Threading.ThreadHelper.ThreadStart(Object obj)
 

 (NB:  This call stack may indicate a separate test case) 


   at Microsoft.Crm.QA.Utf.Log.Fail(LogType type, String message, Object[] args)
   at Microsoft.Crm.QA.Utf.Log.Fail(String message, Object[] args)
   at Microsoft.Crm.QA.Utils.SdkProxyWithCleanup.Dispose(Boolean disposing)
   at Microsoft.Crm.QA.Utils.SdkProxyWithCleanup.Finalize()

Screenshot [12/28/2017 11:13:47 AM]: C:\crmdrop\crmdrop\TestCases\ScreenShots\20171228071346-4.jpg
Warning [12/28/2017 11:13:47 AM]: [2] [VSTSRMLog] - TestCaseId is not set in the testmethod.
Comment [12/28/2017 11:13:47 AM]: [18] Proxy a1d76780-06cc-4fd4-a5c4-92238e8b5d23's Internal Proxy Generated (9.0.1.53)
Comment [12/28/2017 11:13:47 AM]: [18] -----------------------------------
a1d76780-06cc-4fd4-a5c4-92238e8b5d23: Execute(Microsoft.Crm.Sdk.Messages.Internal.DebugTraceBufferGetContentsRequest) at http://v-tagoon/contoso/XRMServices/2011/Organization.svc
Comment [12/28/2017 11:13:47 AM]: [18] a1d76780-06cc-4fd4-a5c4-92238e8b5d23: Execute Completed (37.7951ms Elapsed) - Return Value: DebugTraceBufferGetContents (Microsoft.Crm.Sdk.Messages.Internal.DebugTraceBufferGetContentsResponse)
Comment [12/28/2017 11:13:47 AM]: [18] Wrote 0 lines of trace information to file C:\crmdrop\crmdrop\TestCases\TraceLogs\Server-TraceLog20171228071347-0.log
File [12/28/2017 11:13:47 AM]: C:\crmdrop\crmdrop\TestCases\TraceLogs\Server-TraceLog20171228071347-0.log
Comment [12/28/2017 11:13:47 AM]: [18] Proxy a1d76780-06cc-4fd4-a5c4-92238e8b5d23 Disposed
Comment [12/28/2017 11:13:47 AM]: [18] Context 1256ab77-d10c-4ad4-8332-de66ad2cd709 Disposed
Comment [12/28/2017 11:13:47 AM]: [18] Using Outlook Proceesses to determine client type
Comment [12/28/2017 11:13:47 AM]: [18] No Outlook Processes found.
Comment [12/28/2017 11:13:47 AM]: [18] Processing Open browsers for script errors
Comment [12/28/2017 11:13:47 AM]: [18] Done dealing with script errors
Comment [12/28/2017 11:13:47 AM]: [18] Setting Wait For Idle toggle to True
Comment [12/28/2017 11:13:47 AM]: [18] Restoring form mode settings to what they were before the test.
Comment [12/28/2017 11:13:47 AM]: [18] Platform Windows, browser Chrome, Device Host Machine , Device Host User , Device Host Password , Device Id , Device Name , Device OS .
Comment [12/28/2017 11:13:47 AM]: [18] Context c24552f3-da0c-486a-b2b4-72d00d2a57c6 Instantiated TestClientMode:WebApp
Comment [12/28/2017 11:13:47 AM]: [18] Begin Block: ReadOptimizedFormSdk.SetOrgLevelROSetting
Comment [12/28/2017 11:13:47 AM]: [18]  --> Setting org-level RO value to Edit (SDK value: False) through SDK
Comment [12/28/2017 11:13:47 AM]: [18] Begin Block: ReadOptimizedFormSdk.GetCurrentOrg
Comment [12/28/2017 11:13:47 AM]: [18] Context 39d346d1-d2e6-4264-869c-ec3fd62ca94a Instantiated TestClientMode:WebApp
Comment [12/28/2017 11:13:47 AM]: [18] Proxy fb8c59e9-005a-4902-b759-49922e9a90c7 Instantiated
Comment [12/28/2017 11:13:47 AM]: [18] Configuring Online 2011 AD OrganizationService Proxy for Organization "contoso" with User "Administrator@appcoreDOM.extest.microsoft.com"
Comment [12/28/2017 11:13:47 AM]: [18] Attempting to generate web service - Attempt 1
Comment [12/28/2017 11:13:47 AM]: [18] Proxy fb8c59e9-005a-4902-b759-49922e9a90c7's Internal Proxy Generated (9.0.1.53)
Comment [12/28/2017 11:13:47 AM]: [18] -----------------------------------
fb8c59e9-005a-4902-b759-49922e9a90c7: RetrieveMultiple(systemuser) at http://v-tagoon/contoso/XRMServices/2011/Organization.svc
Comment [12/28/2017 11:13:47 AM]: [18] fb8c59e9-005a-4902-b759-49922e9a90c7: RetrieveMultiple Completed (13.4529ms Elapsed) - Return Value: Count = 0 (Microsoft.Xrm.Sdk.EntityCollection)
Comment [12/28/2017 11:13:47 AM]: [18] -----------------------------------
29f853e3-12a6-46d7-b60f-44f211c6d31c: Execute(Microsoft.Crm.Sdk.Messages.WhoAmIRequest) at http://v-tagoon/contoso/XRMServices/2011/Organization.svc
Comment [12/28/2017 11:13:47 AM]: [18] 29f853e3-12a6-46d7-b60f-44f211c6d31c: Execute Completed (5.2783ms Elapsed) - Return Value: WhoAmI (Microsoft.Crm.Sdk.Messages.WhoAmIResponse)
Comment [12/28/2017 11:13:47 AM]: [18] -----------------------------------
fb8c59e9-005a-4902-b759-49922e9a90c7: Retrieve(systemuser, {027b4ad8-e5eb-e711-80e6-00155d350300}) at http://v-tagoon/contoso/XRMServices/2011/Organization.svc
Comment [12/28/2017 11:13:47 AM]: [18] fb8c59e9-005a-4902-b759-49922e9a90c7: Retrieve Completed (6.8945ms Elapsed) - Return Value: systemuser (CrmSdk.SystemUser)
Comment [12/28/2017 11:13:47 AM]: [18] -----------------------------------
29f853e3-12a6-46d7-b60f-44f211c6d31c: Retrieve(organization, {95198255-1b68-4aca-91d7-c4dd7bee3ee7}) at http://v-tagoon/contoso/XRMServices/2011/Organization.svc
Comment [12/28/2017 11:13:47 AM]: [18] 29f853e3-12a6-46d7-b60f-44f211c6d31c: Retrieve Completed (5.9948ms Elapsed) - Return Value: organization (CrmSdk.Organization)
Comment [12/28/2017 11:13:47 AM]: [18] -----------------------------------
29f853e3-12a6-46d7-b60f-44f211c6d31c: Update(CrmSdk.Organization [LogicalName = organization]) at http://v-tagoon/contoso/XRMServices/2011/Organization.svc
Comment [12/28/2017 11:13:47 AM]: [18] 29f853e3-12a6-46d7-b60f-44f211c6d31c: Update Completed (31.058ms Elapsed)
Comment [12/28/2017 11:13:47 AM]: [18] Context 415e0dee-af93-43ec-afae-80840588f0f9 Instantiated TestClientMode:WebApp
Comment [12/28/2017 11:13:47 AM]: [18] Proxy 8d883e87-c184-4974-8f7a-907ab88c77b4 Instantiated
Comment [12/28/2017 11:13:47 AM]: [18] [FlushCache] Flushing Organization Caches
Comment [12/28/2017 11:13:47 AM]: [18] -----------------------------------
fb8c59e9-005a-4902-b759-49922e9a90c7: Execute(Microsoft.Crm.Sdk.Messages.Internal.DebugFlushCacheRequest) at http://v-tagoon/contoso/XRMServices/2011/Organization.svc
Comment [12/28/2017 11:13:47 AM]: [18] fb8c59e9-005a-4902-b759-49922e9a90c7: Execute Completed (49.4341ms Elapsed) - Return Value: DebugFlushCache (Microsoft.Crm.Sdk.Messages.Internal.DebugFlushCacheResponse)
Comment [12/28/2017 11:13:47 AM]: [18] Organization cache flushed on the server
Comment [12/28/2017 11:13:47 AM]: [18] Configuring Online 2011 AD CrmDiscoveryService Proxy for Organization "contoso" with User "Administrator@appcoreDOM.extest.microsoft.com"
Comment [12/28/2017 11:13:47 AM]: [18] Attempting to generate web service - Attempt 1
Comment [12/28/2017 11:13:47 AM]: [18] Discovery Proxy 69c3021c-51aa-4ccb-896f-7d4710df6a1b Instantiated
Comment [12/28/2017 11:13:47 AM]: [18] -----------------------------------
69c3021c-51aa-4ccb-896f-7d4710df6a1b: Execute(Microsoft.Xrm.Sdk.Discovery.RetrieveOrganizationRequest) at http://192.168.53.27/XRMServices/2011/Discovery.svc
Comment [12/28/2017 11:13:47 AM]: [18] 69c3021c-51aa-4ccb-896f-7d4710df6a1b: Execute Completed (14.1497ms Elapsed) - Return Value: RetrieveOrganization (Microsoft.Xrm.Sdk.Discovery.RetrieveOrganizationResponse)
Comment [12/28/2017 11:13:47 AM]: [18] Using BackEndProxy Url : http://v-tagoon/QA/BackEndService.asmx
Comment [12/28/2017 11:13:47 AM]: [18] Configuring Online 2011 AD OrganizationService Proxy for Organization "contoso" with User "Administrator@appcoreDOM.extest.microsoft.com"
Comment [12/28/2017 11:13:47 AM]: [18] Attempting to generate web service - Attempt 1
Comment [12/28/2017 11:13:47 AM]: [18] Proxy 8d883e87-c184-4974-8f7a-907ab88c77b4's Internal Proxy Generated (9.0.1.53)
Comment [12/28/2017 11:13:47 AM]: [18] -----------------------------------
8d883e87-c184-4974-8f7a-907ab88c77b4: RetrieveMultiple(systemuser) at http://v-tagoon/contoso/XRMServices/2011/Organization.svc
Comment [12/28/2017 11:13:47 AM]: [18] 8d883e87-c184-4974-8f7a-907ab88c77b4: RetrieveMultiple Completed (16.8373ms Elapsed) - Return Value: Count = 0 (Microsoft.Xrm.Sdk.EntityCollection)
Comment [12/28/2017 11:13:47 AM]: [18] -----------------------------------
fb8c59e9-005a-4902-b759-49922e9a90c7: Execute(Microsoft.Crm.Sdk.Messages.WhoAmIRequest) at http://v-tagoon/contoso/XRMServices/2011/Organization.svc
Comment [12/28/2017 11:13:47 AM]: [18] fb8c59e9-005a-4902-b759-49922e9a90c7: Execute Completed (5.5641ms Elapsed) - Return Value: WhoAmI (Microsoft.Crm.Sdk.Messages.WhoAmIResponse)
Comment [12/28/2017 11:13:47 AM]: [18] -----------------------------------
8d883e87-c184-4974-8f7a-907ab88c77b4: Retrieve(systemuser, {027b4ad8-e5eb-e711-80e6-00155d350300}) at http://v-tagoon/contoso/XRMServices/2011/Organization.svc
Comment [12/28/2017 11:13:47 AM]: [18] 8d883e87-c184-4974-8f7a-907ab88c77b4: Retrieve Completed (7.9682ms Elapsed) - Return Value: systemuser (CrmSdk.SystemUser)
Comment [12/28/2017 11:13:47 AM]: [18] -----------------------------------
BackEndService.ExecuteRequest(RetrieveConfigDBRecordRequest) completed with exception (http://v-tagoon/QA/BackEndService.asmx): The file '/QA/BackEndService.asmx' does not exist..
Warning [12/28/2017 11:13:47 AM]: [18] Unable to determine if this is a One-Box deployment due to exception: Unhandled Exception: System.Web.Services.Protocols.SoapException: The file '/QA/BackEndService.asmx' does not exist.
Detail: 
<detail><error xmlns:xsd="http://www.w3.org/2001/XMLSchema" xmlns:xsi="http://www.w3.org/2001/XMLSchema-instance"><exception>Unhandled Exception: System.ServiceModel.FaultException`1[[Microsoft.Xrm.Sdk.OrganizationServiceFault, Microsoft.Xrm.Sdk, Version=9.0.0.0, Culture=neutral, PublicKeyToken=31bf3856ad364e35]]: System.Web.HttpException (0x80004005): The file '/QA/BackEndService.asmx' does not exist.
   at System.Web.UI.Util.CheckVirtualFileExists(VirtualPath virtualPath)
   at System.Web.Compilation.BuildManager.GetVPathBuildResultInternal(VirtualPath virtualPath, Boolean noBuild, Boolean allowCrossApp, Boolean allowBuildInPrecompile, Boolean throwIfNotFound, Boolean ensureIsUpToDate)
   at System.Web.Compilation.BuildManager.GetVPathBuildResultWithNoAssert(HttpContext context, VirtualPath virtualPath, Boolean noBuild, Boolean allowCrossApp, Boolean allowBuildInPrecompile, Boolean throwIfNotFound, Boolean ensureIsUpToDate)
   at System.Web.Compilation.BuildManager.GetVPathBuildResult(HttpContext context, VirtualPath virtualPath, Boolean noBuild, Boolean allowCrossApp, Boolean allowBuildInPrecompile, Boolean ensureIsUpToDate)
   at System.Web.Compilation.BuildManager.GetVPathBuildResult(HttpContext context, VirtualPath virtualPath)
   at System.Web.UI.WebServiceParser.GetCompiledType(String inputFile, HttpContext context)
   at System.Web.Services.Protocols.WebServiceHandlerFactory.GetCompiledType(String url, HttpContext context)
   at System.Web.Services.Protocols.WebServiceHandlerFactory.GetHandler(HttpContext context, String verb, String url, String filePath)
   at System.Web.Script.Services.ScriptHandlerFactory.GetHandler(HttpContext context, String requestType, String url, String pathTranslated)
   at System.Web.HttpApplication.MaterializeHandlerExecutionStep.System.Web.HttpApplication.IExecutionStep.Execute()
   at System.Web.HttpApplication.ExecuteStep(IExecutionStep step, Boolean&amp; completedSynchronously): Microsoft Dynamics CRM has experienced an error. Reference number for administrators or support: #8E0E4105Detail: 
&lt;OrganizationServiceFault xmlns:i="http://www.w3.org/2001/XMLSchema-instance" xmlns="http://schemas.microsoft.com/xrm/2011/Contracts"&gt;
  &lt;ActivityId&gt;ed1c286f-23e0-4e3f-bd14-e3cf4c7337c0&lt;/ActivityId&gt;
  &lt;ErrorCode&gt;-2147220970&lt;/ErrorCode&gt;
  &lt;ErrorDetails xmlns:d2p1="http://schemas.datacontract.org/2004/07/System.Collections.Generic"&gt;
    &lt;KeyValuePairOfstringanyType&gt;
      &lt;d2p1:key&gt;CallStack&lt;/d2p1:key&gt;
      &lt;d2p1:value xmlns:d4p1="http://www.w3.org/2001/XMLSchema" i:type="d4p1:string"&gt;   at System.Web.UI.Util.CheckVirtualFileExists(VirtualPath virtualPath)
   at System.Web.Compilation.BuildManager.GetVPathBuildResultInternal(VirtualPath virtualPath, Boolean noBuild, Boolean allowCrossApp, Boolean allowBuildInPrecompile, Boolean throwIfNotFound, Boolean ensureIsUpToDate)
   at System.Web.Compilation.BuildManager.GetVPathBuildResultWithNoAssert(HttpContext context, VirtualPath virtualPath, Boolean noBuild, Boolean allowCrossApp, Boolean allowBuildInPrecompile, Boolean throwIfNotFound, Boolean ensureIsUpToDate)
   at System.Web.Compilation.BuildManager.GetVPathBuildResult(HttpContext context, VirtualPath virtualPath, Boolean noBuild, Boolean allowCrossApp, Boolean allowBuildInPrecompile, Boolean ensureIsUpToDate)
   at System.Web.Compilation.BuildManager.GetVPathBuildResult(HttpContext context, VirtualPath virtualPath)
   at System.Web.UI.WebServiceParser.GetCompiledType(String inputFile, HttpContext context)
   at System.Web.Services.Protocols.WebServiceHandlerFactory.GetCompiledType(String url, HttpContext context)
   at System.Web.Services.Protocols.WebServiceHandlerFactory.GetHandler(HttpContext context, String verb, String url, String filePath)
   at System.Web.Script.Services.ScriptHandlerFactory.GetHandler(HttpContext context, String requestType, String url, String pathTranslated)
   at System.Web.HttpApplication.MaterializeHandlerExecutionStep.System.Web.HttpApplication.IExecutionStep.Execute()
   at System.Web.HttpApplication.ExecuteStep(IExecutionStep step, Boolean&amp;amp; completedSynchronously)&lt;/d2p1:value&gt;
    &lt;/KeyValuePairOfstringanyType&gt;
  &lt;/ErrorDetails&gt;
  &lt;Message&gt;System.Web.HttpException (0x80004005): The file '/QA/BackEndService.asmx' does not exist.
   at System.Web.UI.Util.CheckVirtualFileExists(VirtualPath virtualPath)
   at System.Web.Compilation.BuildManager.GetVPathBuildResultInternal(VirtualPath virtualPath, Boolean noBuild, Boolean allowCrossApp, Boolean allowBuildInPrecompile, Boolean throwIfNotFound, Boolean ensureIsUpToDate)
   at System.Web.Compilation.BuildManager.GetVPathBuildResultWithNoAssert(HttpContext context, VirtualPath virtualPath, Boolean noBuild, Boolean allowCrossApp, Boolean allowBuildInPrecompile, Boolean throwIfNotFound, Boolean ensureIsUpToDate)
   at System.Web.Compilation.BuildManager.GetVPathBuildResult(HttpContext context, VirtualPath virtualPath, Boolean noBuild, Boolean allowCrossApp, Boolean allowBuildInPrecompile, Boolean ensureIsUpToDate)
   at System.Web.Compilation.BuildManager.GetVPathBuildResult(HttpContext context, VirtualPath virtualPath)
   at System.Web.UI.WebServiceParser.GetCompiledType(String inputFile, HttpContext context)
   at System.Web.Services.Protocols.WebServiceHandlerFactory.GetCompiledType(String url, HttpContext context)
   at System.Web.Services.Protocols.WebServiceHandlerFactory.GetHandler(HttpContext context, String verb, String url, String filePath)
   at System.Web.Script.Services.ScriptHandlerFactory.GetHandler(HttpContext context, String requestType, String url, String pathTranslated)
   at System.Web.HttpApplication.MaterializeHandlerExecutionStep.System.Web.HttpApplication.IExecutionStep.Execute()
   at System.Web.HttpApplication.ExecuteStep(IExecutionStep step, Boolean&amp;amp; completedSynchronously): Microsoft Dynamics CRM has experienced an error. Reference number for administrators or support: #8E0E4105&lt;/Message&gt;
  &lt;Timestamp&gt;2017-12-28T19:13:47.3857681Z&lt;/Timestamp&gt;
  &lt;ExceptionRetriable&gt;false&lt;/ExceptionRetriable&gt;
  &lt;ExceptionSource i:nil="true" /&gt;
  &lt;InnerFault i:nil="true" /&gt;
  &lt;OriginalException i:nil="true" /&gt;
  &lt;TraceText i:nil="true" /&gt;
&lt;/OrganizationServiceFault&gt;

</exception><parameters xsi:nil="true" /><displaytitle /><displaytextencoded /><displaytext /><description>The file '/QA/BackEndService.asmx' does not exist.</description><file>Not available</file><line>Not available</line><details>The file '/QA/BackEndService.asmx' does not exist.</details><traceInfo /><requesturl>http://v-tagoon/QA/BackEndService.asmx</requesturl><pathAndQuery>/QA/BackEndService.asmx</pathAndQuery><source>SOAP</source><stacktrace>[HttpException: The file '/QA/BackEndService.asmx' does not exist.]
   at System.Web.UI.Util.CheckVirtualFileExists(VirtualPath virtualPath)
   at System.Web.Compilation.BuildManager.GetVPathBuildResultInternal(VirtualPath virtualPath, Boolean noBuild, Boolean allowCrossApp, Boolean allowBuildInPrecompile, Boolean throwIfNotFound, Boolean ensureIsUpToDate)
   at System.Web.Compilation.BuildManager.GetVPathBuildResultWithNoAssert(HttpContext context, VirtualPath virtualPath, Boolean noBuild, Boolean allowCrossApp, Boolean allowBuildInPrecompile, Boolean throwIfNotFound, Boolean ensureIsUpToDate)
   at System.Web.Compilation.BuildManager.GetVPathBuildResult(HttpContext context, VirtualPath virtualPath, Boolean noBuild, Boolean allowCrossApp, Boolean allowBuildInPrecompile, Boolean ensureIsUpToDate)
   at System.Web.Compilation.BuildManager.GetVPathBuildResult(HttpContext context, VirtualPath virtualPath)
   at System.Web.UI.WebServiceParser.GetCompiledType(String inputFile, HttpContext context)
   at System.Web.Services.Protocols.WebServiceHandlerFactory.GetCompiledType(String url, HttpContext context)
   at System.Web.Services.Protocols.WebServiceHandlerFactory.GetHandler(HttpContext context, String verb, String url, String filePath)
   at System.Web.Script.Services.ScriptHandlerFactory.GetHandler(HttpContext context, String requestType, String url, String pathTranslated)
   at System.Web.HttpApplication.MaterializeHandlerExecutionStep.System.Web.HttpApplication.IExecutionStep.Execute()
   at System.Web.HttpApplication.ExecuteStep(IExecutionStep step, Boolean&amp; completedSynchronously)

</stacktrace></error></detail>
   at System.Web.Services.Protocols.SoapHttpClientProtocol.ReadResponse(SoapClientMessage message, WebResponse response, Stream responseStream, Boolean asyncCall)
   at System.Web.Services.Protocols.SoapHttpClientProtocol.Invoke(String methodName, Object[] parameters)
   at Microsoft.Crm.QA.Libraries.BackEnd.BackEndService.Execute(BackEndRequest request)
   at Microsoft.Crm.QA.Libraries.BackEnd.BackEndProxy.ExecuteRequest(BackEndRequest request)
   at Microsoft.Crm.QA.Libraries.CacheManagement.CacheUtility.get_IsOneBoxDeployment()

Comment [12/28/2017 11:13:47 AM]: [18] -----------------------------------
8d883e87-c184-4974-8f7a-907ab88c77b4: Execute(Microsoft.Crm.Sdk.Messages.Internal.CheckNotificationsRequest) at http://v-tagoon/contoso/XRMServices/2011/Organization.svc
Comment [12/28/2017 11:13:47 AM]: [18] 8d883e87-c184-4974-8f7a-907ab88c77b4: Execute Completed (6.728ms Elapsed) - Return Value: CheckNotifications (Microsoft.Crm.Sdk.Messages.Internal.CheckNotificationsResponse)
Comment [12/28/2017 11:13:47 AM]: [18] [WaitForCacheFlush] Sleeping for 10.000s
Comment [12/28/2017 11:13:57 AM]: [18] Begin Block: ReadOptimizedFormSdk.SetUserLevelROSetting
Comment [12/28/2017 11:13:57 AM]: [18] Begin Block: ReadOptimizedFormSdk.SetUserLevelROSetting
Comment [12/28/2017 11:13:57 AM]: [18]  --> Setting user-level RO value to OrganizationDefault (SDK value: 0) through SDK (current user: Administrator, SDK-executing user: Administrator)
Comment [12/28/2017 11:13:57 AM]: [18] -----------------------------------
6e6ebdb6-d2ac-4b0d-abbc-7ed381141024: Execute(Microsoft.Crm.Sdk.Messages.UpdateUserSettingsSystemUserRequest) at http://v-tagoon/contoso/XRMServices/2011/Organization.svc
Comment [12/28/2017 11:13:57 AM]: [18] 6e6ebdb6-d2ac-4b0d-abbc-7ed381141024: Execute Completed (233.4725ms Elapsed) - Return Value: UpdateUserSettingsSystemUser (Microsoft.Crm.Sdk.Messages.UpdateUserSettingsSystemUserResponse)
FAILURE [12/28/2017 11:13:57 AM]: [18] Unhandled Exception: System.NullReferenceException: Object reference not set to an instance of an object.
   at TestCases.Performance.UI.PerceivedPerformanceBase.TearDown()
   at TestCases.Performance.UI.PerceivedPerformance.TearDown()
   at Microsoft.Crm.QA.Utf.TestBase.InvokeTearDown()

Screenshot [12/28/2017 11:13:57 AM]: C:\crmdrop\crmdrop\TestCases\ScreenShots\20171228071357-0.jpg
Warning [12/28/2017 11:13:57 AM]: [18] [VSTSRMLog] - TestCaseId is not set in the testmethod.
Comment [12/28/2017 11:13:57 AM]: [18] Platform Windows, browser Chrome, Device Host Machine , Device Host User , Device Host Password , Device Id , Device Name , Device OS .
Comment [12/28/2017 11:13:57 AM]: [18] Context 22567f99-65e0-4b5a-b3a8-abc31df7b67e Instantiated TestClientMode:WebApp
Comment [12/28/2017 11:13:57 AM]: [18] Proxy 4a3ab67d-4614-48c7-9904-22794489eb92 Instantiated
Comment [12/28/2017 11:13:57 AM]: [18] Configuring Online 2011 AD OrganizationService Proxy for Organization "contoso" with User "Administrator@appcoreDOM.extest.microsoft.com"
Comment [12/28/2017 11:13:57 AM]: [18] Attempting to generate web service - Attempt 1
Comment [12/28/2017 11:13:57 AM]: [18] Proxy 4a3ab67d-4614-48c7-9904-22794489eb92's Internal Proxy Generated (9.0.1.53)
Comment [12/28/2017 11:13:57 AM]: [18] -----------------------------------
4a3ab67d-4614-48c7-9904-22794489eb92: Execute(Microsoft.Crm.Sdk.Messages.Internal.DebugTraceBufferGetContentsRequest) at http://v-tagoon/contoso/XRMServices/2011/Organization.svc
Comment [12/28/2017 11:13:57 AM]: [18] 4a3ab67d-4614-48c7-9904-22794489eb92: Execute Completed (23.5139ms Elapsed) - Return Value: DebugTraceBufferGetContents (Microsoft.Crm.Sdk.Messages.Internal.DebugTraceBufferGetContentsResponse)
Comment [12/28/2017 11:13:57 AM]: [18] Wrote 0 lines of trace information to file C:\crmdrop\crmdrop\TestCases\TraceLogs\Server-TraceLog20171228071357-0.log
File [12/28/2017 11:13:57 AM]: C:\crmdrop\crmdrop\TestCases\TraceLogs\Server-TraceLog20171228071357-0.log
Comment [12/28/2017 11:13:57 AM]: [18] Proxy 4a3ab67d-4614-48c7-9904-22794489eb92 Disposed
Comment [12/28/2017 11:13:57 AM]: [18] Context 22567f99-65e0-4b5a-b3a8-abc31df7b67e Disposed
Comment [12/28/2017 11:13:57 AM]: [18] Using Outlook Proceesses to determine client type
Comment [12/28/2017 11:13:57 AM]: [18] No Outlook Processes found.
Comment [12/28/2017 11:13:57 AM]: [18] Processing Open browsers for script errors
Comment [12/28/2017 11:13:57 AM]: [18] Done dealing with script errors
----[End QAPerformance.exe+TestCases.Performance.UI.FirstPagePerceivedPerformance.OpenContactFormCold: 6 Failure(s), 13 Warning(s), 0 Pass(es), 0 Watsons; 00:05:14.6606420]----

----[End QAPerformance.exe  TestCases.Performance.UI.PerceivedPerformance.OpenContactFormCold: 8 Failure(s), 21 Warning(s), 0 Pass(es), 0 Watsons; 00:10:31.1892725]----

